xof 0303txt 0032
template Frame {
 <3d82ab46-62da-11cf-ab39-0020af71e433>
 [...]
}

template Matrix4x4 {
 <f6f23f45-7686-11cf-8f52-0040333594a3>
 array FLOAT matrix[16];
}

template FrameTransformMatrix {
 <f6f23f41-7686-11cf-8f52-0040333594a3>
 Matrix4x4 frameMatrix;
}

template ObjectMatrixComment {
 <95a48e28-7ef4-4419-a16a-ba9dbdf0d2bc>
 Matrix4x4 objectMatrix;
}

template Vector {
 <3d82ab5e-62da-11cf-ab39-0020af71e433>
 FLOAT x;
 FLOAT y;
 FLOAT z;
}

template MeshFace {
 <3d82ab5f-62da-11cf-ab39-0020af71e433>
 DWORD nFaceVertexIndices;
 array DWORD faceVertexIndices[nFaceVertexIndices];
}

template Mesh {
 <3d82ab44-62da-11cf-ab39-0020af71e433>
 DWORD nVertices;
 array Vector vertices[nVertices];
 DWORD nFaces;
 array MeshFace faces[nFaces];
 [...]
}

template MeshNormals {
 <f6f23f43-7686-11cf-8f52-0040333594a3>
 DWORD nNormals;
 array Vector normals[nNormals];
 DWORD nFaceNormals;
 array MeshFace faceNormals[nFaceNormals];
}

template Coords2d {
 <f6f23f44-7686-11cf-8f52-0040333594a3>
 FLOAT u;
 FLOAT v;
}

template MeshTextureCoords {
 <f6f23f40-7686-11cf-8f52-0040333594a3>
 DWORD nTextureCoords;
 array Coords2d textureCoords[nTextureCoords];
}


Frame Box010 {
 

 FrameTransformMatrix relative {
  1.000000,0.000000,0.000000,0.000000,0.000000,1.000000,0.000000,0.000000,0.000000,0.000000,1.000000,0.000000,0.000000,0.000000,0.000000,1.000000;;
 }

 ObjectMatrixComment object {
  0.280751,0.000000,0.000000,0.000000,0.000000,0.280751,0.000000,0.000000,0.000000,0.000000,0.280751,0.000000,0.000000,2.821104,0.140295,1.000000;;
 }

 Mesh mesh_B {
  319;
  -3.478266;0.000000;-11.519395;,
  3.478266;0.000000;-11.519395;,
  3.197515;0.000000;-11.800146;,
  -3.197515;0.000000;-11.800146;,
  3.197515;0.000000;-11.800146;,
  3.197515;13.491594;-11.800146;,
  -3.197515;13.491594;-11.800146;,
  -3.197515;0.000000;-11.800146;,
  3.478266;0.000000;-11.519395;,
  3.478266;0.000000;11.799985;,
  3.478266;13.491594;11.799985;,
  3.478266;13.491594;-11.519395;,
  3.197515;0.000000;12.080736;,
  -3.197515;0.000000;12.080736;,
  -3.197515;13.491594;12.080736;,
  3.197515;13.491594;12.080736;,
  -3.478266;0.000000;11.799985;,
  -3.478266;0.000000;-11.519395;,
  -3.478266;13.491594;-11.519395;,
  -3.478266;13.491594;11.799985;,
  -3.197515;13.491594;-11.800146;,
  -3.478266;13.491594;-11.519395;,
  -3.478266;0.000000;-11.519395;,
  -3.478266;0.000000;-11.519395;,
  -3.197515;0.000000;-11.800146;,
  -3.197515;13.491594;-11.800146;,
  3.197515;0.000000;-11.800146;,
  3.478266;0.000000;-11.519395;,
  3.478266;13.491594;-11.519395;,
  3.478266;13.491594;-11.519395;,
  3.197515;13.491594;-11.800146;,
  3.197515;0.000000;-11.800146;,
  3.478266;0.000000;11.799985;,
  3.197515;0.000000;12.080736;,
  3.197515;13.491594;12.080736;,
  3.197515;13.491594;12.080736;,
  3.478266;13.491594;11.799985;,
  3.478266;0.000000;11.799985;,
  -3.197515;0.000000;12.080736;,
  -3.478266;0.000000;11.799985;,
  -3.478266;13.491594;11.799985;,
  -3.478266;13.491594;11.799985;,
  -3.197515;13.491594;12.080736;,
  -3.197515;0.000000;12.080736;,
  -3.478266;0.000000;11.799985;,
  3.478266;0.000000;11.799985;,
  -3.197515;0.000000;12.080736;,
  3.197515;0.000000;12.080736;,
  0.000000;3.612096;-12.300050;,
  -1.868416;3.609068;-12.295726;,
  -1.790727;3.820410;-12.304461;,
  0.000000;3.820410;-12.304461;,
  0.000000;3.546014;-12.496594;,
  -1.944581;3.546014;-12.496594;,
  -1.868416;3.609068;-12.295726;,
  0.000000;3.612096;-12.300050;,
  0.000000;3.753306;-12.501719;,
  -1.868416;3.756334;-12.506043;,
  -3.341633;12.216458;-11.783826;,
  -3.405030;12.548738;-11.766169;,
  -3.264766;12.494003;-11.908298;,
  -3.202175;12.233032;-11.887062;,
  -3.596778;12.585889;-11.908298;,
  -3.405030;12.548738;-11.766169;,
  -3.341633;12.216458;-11.783826;,
  -3.570318;12.135232;-11.889208;,
  -3.341633;12.216458;-12.036874;,
  -3.405030;12.548738;-12.050428;,
  -3.175766;12.841879;-11.766328;,
  -2.614713;13.117905;-11.785080;,
  -2.681635;12.914454;-11.908298;,
  -3.108143;12.756154;-11.908298;,
  -3.304318;12.956925;-11.908298;,
  -2.532089;13.343798;-11.908298;,
  -2.614713;13.117905;-11.785080;,
  -3.175766;12.841879;-11.766328;,
  -2.614727;13.117910;-12.031522;,
  -3.175766;12.841879;-12.050270;,
  -2.539161;11.059462;-11.782299;,
  -2.760071;11.481816;-11.783190;,
  -2.621603;11.583422;-11.908298;,
  -2.294895;11.059462;-11.908298;,
  -2.776198;11.059462;-11.908298;,
  -2.936804;11.349958;-11.908298;,
  -2.760071;11.481816;-11.783190;,
  -2.539161;11.059462;-11.782299;,
  -2.760071;11.481816;-12.033407;,
  -2.539161;11.059462;-12.034300;,
  -2.539161;4.501042;-11.789890;,
  -2.294895;4.501042;-11.908298;,
  -2.776198;4.501042;-11.908298;,
  -2.539161;4.501042;-11.789890;,
  -2.539161;4.501042;-12.026710;,
  -2.333425;3.938904;-12.078327;,
  -2.156329;4.061260;-12.135816;,
  -2.479319;3.952509;-12.211964;,
  -2.333425;3.938904;-12.078327;,
  -2.333425;4.073432;-12.270454;,
  1.790727;3.820410;-12.304461;,
  1.868416;3.609068;-12.295726;,
  1.868416;3.609068;-12.295726;,
  1.944581;3.546014;-12.496594;,
  1.868416;3.756334;-12.506043;,
  3.341633;12.216458;-11.783826;,
  3.202175;12.233032;-11.887062;,
  3.264766;12.494003;-11.908298;,
  3.405030;12.548738;-11.766169;,
  3.596778;12.585889;-11.908298;,
  3.570318;12.135232;-11.889208;,
  3.341633;12.216458;-11.783826;,
  3.405030;12.548738;-11.766169;,
  3.341633;12.216458;-12.036874;,
  3.405030;12.548738;-12.050428;,
  3.175766;12.841879;-11.766328;,
  3.108143;12.756154;-11.908298;,
  2.681635;12.914454;-11.908298;,
  2.614713;13.117905;-11.785080;,
  3.304318;12.956925;-11.908298;,
  3.175766;12.841879;-11.766328;,
  2.614713;13.117905;-11.785080;,
  2.532089;13.343798;-11.908298;,
  2.614727;13.117910;-12.031522;,
  3.175766;12.841879;-12.050270;,
  2.539160;11.059462;-11.782299;,
  2.294895;11.059462;-11.908298;,
  2.621603;11.583422;-11.908298;,
  2.760071;11.481816;-11.783190;,
  2.776198;11.059462;-11.908298;,
  2.539160;11.059462;-11.782299;,
  2.760071;11.481816;-11.783190;,
  2.936804;11.349958;-11.908298;,
  2.760071;11.481816;-12.033407;,
  2.539160;11.059462;-12.034300;,
  2.539160;4.501042;-11.789890;,
  2.294895;4.501042;-11.908298;,
  2.776198;4.501042;-11.908298;,
  2.539160;4.501042;-11.789890;,
  2.539160;4.501042;-12.026710;,
  2.333425;3.938904;-12.078327;,
  2.156329;4.061260;-12.135816;,
  2.479319;3.952509;-12.211964;,
  2.333425;3.938904;-12.078327;,
  2.333425;4.073432;-12.270454;,
  -2.758142;10.974699;-12.070887;,
  -2.758142;6.617062;-12.070887;,
  -2.422414;6.617062;-12.118736;,
  -2.422414;6.617062;-12.118736;,
  -2.422413;10.974699;-12.118736;,
  -2.758142;10.974699;-12.070887;,
  -2.422413;10.974699;-12.118736;,
  2.422413;10.974699;-12.118736;,
  2.422413;11.207589;-12.095763;,
  2.422413;11.207589;-12.095763;,
  -2.422413;11.207589;-12.095763;,
  -2.422413;10.974699;-12.118736;,
  -2.422414;6.617062;-12.118736;,
  -2.422414;6.210876;-12.118736;,
  2.422414;6.210876;-12.118736;,
  2.422414;6.210876;-12.118736;,
  2.422414;6.617062;-12.118736;,
  -2.422414;6.617062;-12.118736;,
  -2.422414;5.780916;-11.732864;,
  2.422414;5.780916;-11.732864;,
  2.422414;6.210876;-12.118736;,
  2.422414;6.210876;-12.118736;,
  -2.422414;6.210876;-12.118736;,
  -2.422414;5.780916;-11.732864;,
  -2.862091;10.974699;-11.867619;,
  -2.862091;6.617062;-11.867619;,
  -2.758142;6.617062;-12.070887;,
  -2.758142;6.617062;-12.070887;,
  -2.758142;10.974699;-12.070887;,
  -2.862091;10.974699;-11.867619;,
  2.758142;10.974699;-12.070887;,
  2.422413;10.974699;-12.118736;,
  2.422414;6.617062;-12.118736;,
  2.422414;6.617062;-12.118736;,
  2.758142;6.617062;-12.070887;,
  2.758142;10.974699;-12.070887;,
  -2.422413;10.974699;-12.118736;,
  2.422413;10.974699;-12.118736;,
  2.862091;10.974699;-11.867619;,
  2.758142;10.974699;-12.070887;,
  2.758142;6.617062;-12.070887;,
  2.758142;6.617062;-12.070887;,
  2.862091;6.617062;-11.867619;,
  2.862091;10.974699;-11.867619;,
  2.422413;11.207589;-12.095763;,
  2.422413;11.423855;-11.739370;,
  -2.422413;11.423855;-11.739370;,
  -2.422413;11.423855;-11.739370;,
  -2.422413;11.207589;-12.095763;,
  2.422413;11.207589;-12.095763;,
  -3.676991;13.622778;-10.851836;,
  -3.676991;12.700333;-11.246846;,
  -3.676991;13.218888;-11.703997;,
  -3.676991;13.622778;-11.983650;,
  -3.676991;13.622778;12.493765;,
  -3.676991;12.538585;12.506044;,
  -3.676991;10.129933;-10.579374;,
  -3.676991;10.187895;-10.941954;,
  -3.676991;13.218888;-11.703997;,
  -3.475086;13.303944;-12.101283;,
  -3.196220;13.622778;-10.851836;,
  3.196220;13.622778;-10.851836;,
  3.676991;13.622778;12.493765;,
  -3.676991;13.622778;12.493765;,
  3.676991;13.622778;12.493765;,
  3.676991;12.538585;12.506044;,
  -3.676991;12.538585;12.506044;,
  -3.676991;13.622778;12.493765;,
  3.065200;12.336290;-12.303896;,
  3.128960;12.731046;-12.372750;,
  -3.128960;12.731046;-12.372750;,
  -3.065200;12.336290;-12.303896;,
  2.929390;11.992167;-11.961207;,
  -2.929390;11.992167;-11.961207;,
  -3.676991;13.622778;-10.851836;,
  -3.676991;13.622778;-11.983650;,
  -3.196220;13.622778;-11.994388;,
  -3.134830;13.279073;-12.295441;,
  -3.196220;13.622778;-11.994388;,
  -3.676991;13.622778;-11.983650;,
  -3.475086;13.303944;-12.101283;,
  3.134830;13.279073;-12.295441;,
  -3.676991;10.414434;-11.246846;,
  -3.579223;13.533218;-11.306642;,
  -3.579223;13.533218;-11.701372;,
  -3.579223;13.135212;-11.701372;,
  -3.579223;12.660846;-11.306642;,
  -3.579223;13.533218;-11.944891;,
  -3.380187;13.191574;-12.045178;,
  -3.579223;12.660846;-11.306642;,
  -3.579223;13.135212;-11.701372;,
  -3.676991;13.218888;-11.703997;,
  -3.676991;12.700333;-11.246846;,
  -3.579223;12.416573;12.427307;,
  -3.579223;10.007920;-10.579374;,
  -3.676991;10.129933;-10.579374;,
  -3.676991;12.538585;12.506044;,
  -3.579223;10.065882;-10.941954;,
  -3.676991;10.187895;-10.941954;,
  -3.579223;13.135212;-11.701372;,
  -3.380187;13.191574;-12.045178;,
  -3.475086;13.303944;-12.101283;,
  -3.676991;13.218888;-11.703997;,
  -3.196220;12.736033;-12.257750;,
  -3.137205;12.384493;-12.199375;,
  -3.065200;12.336290;-12.303896;,
  -3.128960;12.731046;-12.372750;,
  -2.993151;12.074669;-11.880938;,
  -2.929390;11.992167;-11.961207;,
  -3.196220;13.191574;-12.201808;,
  -3.134830;13.279073;-12.295441;,
  -3.196220;13.191574;-12.201808;,
  -3.134830;13.279073;-12.295441;,
  -3.579223;10.336853;-11.306642;,
  -3.676991;10.414434;-11.246846;,
  -3.579223;10.336853;-11.306642;,
  -3.676991;10.414434;-11.246846;,
  3.676991;13.622778;-10.851836;,
  3.676991;13.622778;-11.983650;,
  3.676991;13.218888;-11.703997;,
  3.676991;12.700333;-11.246846;,
  3.676991;10.129933;-10.579374;,
  3.676991;12.538585;12.506044;,
  3.676991;13.622778;12.493765;,
  3.676991;10.187895;-10.941954;,
  3.676991;13.218888;-11.703997;,
  3.475086;13.303944;-12.101283;,
  3.196220;13.622778;-11.994388;,
  3.196220;13.622778;-11.994388;,
  3.676991;13.622778;-10.851836;,
  3.676991;13.622778;-11.983650;,
  3.475086;13.303944;-12.101283;,
  3.676991;13.622778;-11.983650;,
  3.676991;10.414434;-11.246846;,
  3.579223;13.533218;-11.306642;,
  3.579223;12.660846;-11.306642;,
  3.579223;13.135212;-11.701372;,
  3.579223;13.533218;-11.701372;,
  3.380187;13.191574;-12.045178;,
  3.579223;13.533218;-11.944891;,
  3.579223;12.660846;-11.306642;,
  3.676991;12.700333;-11.246846;,
  3.676991;13.218888;-11.703997;,
  3.579223;13.135212;-11.701372;,
  3.579223;12.416573;12.427307;,
  3.676991;12.538585;12.506044;,
  3.676991;10.129933;-10.579374;,
  3.579223;10.007920;-10.579374;,
  3.676991;10.187895;-10.941954;,
  3.579223;10.065882;-10.941954;,
  3.579223;13.135212;-11.701372;,
  3.676991;13.218888;-11.703997;,
  3.475086;13.303944;-12.101283;,
  3.380187;13.191574;-12.045178;,
  3.579223;12.416573;12.427307;,
  -3.579223;12.416573;12.427307;,
  -3.676991;12.538585;12.506044;,
  3.676991;12.538585;12.506044;,
  3.196220;12.736033;-12.257750;,
  3.128960;12.731046;-12.372750;,
  3.065200;12.336290;-12.303896;,
  3.137205;12.384493;-12.199375;,
  2.929390;11.992167;-11.961207;,
  2.993151;12.074669;-11.880938;,
  -2.993151;12.074669;-11.880938;,
  2.993151;12.074669;-11.880938;,
  2.929390;11.992167;-11.961207;,
  -2.929390;11.992167;-11.961207;,
  3.134830;13.279073;-12.295441;,
  3.196220;13.191574;-12.201808;,
  3.196220;13.191574;-12.201808;,
  3.134830;13.279073;-12.295441;,
  3.579223;10.336853;-11.306642;,
  3.676991;10.414434;-11.246846;,
  3.676991;10.414434;-11.246846;,
  3.579223;10.336853;-11.306642;;
  276;
  3;0,2,1;,
  3;2,0,3;,
  3;4,6,5;,
  3;6,4,7;,
  3;8,10,9;,
  3;10,8,11;,
  3;12,14,13;,
  3;14,12,15;,
  3;16,18,17;,
  3;18,16,19;,
  3;20,22,21;,
  3;23,25,24;,
  3;26,28,27;,
  3;29,31,30;,
  3;32,34,33;,
  3;35,37,36;,
  3;38,40,39;,
  3;41,43,42;,
  3;44,1,45;,
  3;1,44,0;,
  3;44,47,46;,
  3;47,44,45;,
  3;48,50,49;,
  3;50,48,51;,
  3;52,54,53;,
  3;54,52,55;,
  3;52,57,56;,
  3;57,52,53;,
  3;56,50,51;,
  3;50,56,57;,
  3;58,60,59;,
  3;60,58,61;,
  3;62,64,63;,
  3;64,62,65;,
  3;66,62,67;,
  3;62,66,65;,
  3;60,66,67;,
  3;66,60,61;,
  3;68,70,69;,
  3;70,68,71;,
  3;72,74,73;,
  3;74,72,75;,
  3;76,72,73;,
  3;72,76,77;,
  3;70,77,76;,
  3;77,70,71;,
  3;78,80,79;,
  3;80,78,81;,
  3;82,84,83;,
  3;84,82,85;,
  3;86,82,83;,
  3;82,86,87;,
  3;80,87,86;,
  3;87,80,81;,
  3;59,71,68;,
  3;71,59,60;,
  3;62,75,72;,
  3;75,62,63;,
  3;77,62,72;,
  3;62,77,67;,
  3;71,67,77;,
  3;67,71,60;,
  3;79,61,58;,
  3;61,79,80;,
  3;83,64,65;,
  3;64,83,84;,
  3;66,83,65;,
  3;83,66,86;,
  3;61,86,66;,
  3;86,61,80;,
  3;88,81,78;,
  3;81,88,89;,
  3;90,85,82;,
  3;85,90,91;,
  3;87,90,82;,
  3;90,87,92;,
  3;81,92,87;,
  3;92,81,89;,
  3;93,50,94;,
  3;50,93,49;,
  3;95,54,96;,
  3;54,95,53;,
  3;57,95,97;,
  3;95,57,53;,
  3;50,97,94;,
  3;97,50,57;,
  3;93,89,88;,
  3;89,93,94;,
  3;95,91,90;,
  3;91,95,96;,
  3;92,95,90;,
  3;95,92,97;,
  3;89,97,92;,
  3;97,89,94;,
  3;48,98,51;,
  3;98,48,99;,
  3;52,100,55;,
  3;100,52,101;,
  3;52,102,101;,
  3;102,52,56;,
  3;56,98,102;,
  3;98,56,51;,
  3;103,105,104;,
  3;105,103,106;,
  3;107,109,108;,
  3;109,107,110;,
  3;111,107,108;,
  3;107,111,112;,
  3;105,111,104;,
  3;111,105,112;,
  3;113,115,114;,
  3;115,113,116;,
  3;117,119,118;,
  3;119,117,120;,
  3;121,117,122;,
  3;117,121,120;,
  3;115,122,114;,
  3;122,115,121;,
  3;123,125,124;,
  3;125,123,126;,
  3;127,129,128;,
  3;129,127,130;,
  3;131,127,132;,
  3;127,131,130;,
  3;125,132,124;,
  3;132,125,131;,
  3;106,114,105;,
  3;114,106,113;,
  3;107,118,110;,
  3;118,107,117;,
  3;122,107,112;,
  3;107,122,117;,
  3;114,112,105;,
  3;112,114,122;,
  3;126,104,125;,
  3;104,126,103;,
  3;130,109,129;,
  3;109,130,108;,
  3;111,130,131;,
  3;130,111,108;,
  3;104,131,125;,
  3;131,104,111;,
  3;133,124,134;,
  3;124,133,123;,
  3;135,128,136;,
  3;128,135,127;,
  3;132,135,137;,
  3;135,132,127;,
  3;124,137,134;,
  3;137,124,132;,
  3;138,98,99;,
  3;98,138,139;,
  3;140,100,101;,
  3;100,140,141;,
  3;102,140,101;,
  3;140,102,142;,
  3;98,142,102;,
  3;142,98,139;,
  3;138,134,139;,
  3;134,138,133;,
  3;140,136,141;,
  3;136,140,135;,
  3;137,140,142;,
  3;140,137,135;,
  3;134,142,139;,
  3;142,134,137;,
  3;143,145,144;,
  3;146,148,147;,
  3;149,151,150;,
  3;152,154,153;,
  3;155,157,156;,
  3;158,160,159;,
  3;161,163,162;,
  3;164,166,165;,
  3;167,169,168;,
  3;170,172,171;,
  3;173,175,174;,
  3;176,178,177;,
  3;179,159,155;,
  3;159,179,180;,
  3;181,183,182;,
  3;184,186,185;,
  3;187,189,188;,
  3;190,192,191;,
  3;193,195,194;,
  3;195,193,196;,
  3;193,198,197;,
  3;198,193,199;,
  3;199,193,200;,
  3;201,196,202;,
  3;203,205,204;,
  3;205,203,206;,
  3;207,209,208;,
  3;209,207,210;,
  3;211,213,212;,
  3;213,211,214;,
  3;215,214,211;,
  3;214,215,216;,
  3;206,203,217;,
  3;217,219,218;,
  3;219,217,203;,
  3;220,222,221;,
  3;222,220,223;,
  3;213,224,212;,
  3;224,213,220;,
  3;193,225,200;,
  3;225,193,194;,
  3;226,228,227;,
  3;228,226,229;,
  3;227,231,230;,
  3;231,227,228;,
  3;232,234,233;,
  3;234,232,235;,
  3;236,238,237;,
  3;238,236,239;,
  3;237,241,240;,
  3;241,237,238;,
  3;242,244,243;,
  3;244,242,245;,
  3;246,248,247;,
  3;248,246,249;,
  3;247,251,250;,
  3;251,247,248;,
  3;243,253,252;,
  3;253,243,244;,
  3;254,249,246;,
  3;249,254,255;,
  3;256,235,232;,
  3;235,256,257;,
  3;240,259,258;,
  3;259,240,241;,
  3;260,262,261;,
  3;262,260,263;,
  3;260,265,264;,
  3;265,260,266;,
  3;264,267,260;,
  3;268,269,261;,
  3;204,219,203;,
  3;219,204,270;,
  3;221,224,220;,
  3;224,221,271;,
  3;205,272,204;,
  3;272,270,204;,
  3;270,272,273;,
  3;224,275,274;,
  3;275,224,271;,
  3;260,276,263;,
  3;276,260,267;,
  3;277,279,278;,
  3;279,277,280;,
  3;280,281,279;,
  3;281,280,282;,
  3;283,285,284;,
  3;285,283,286;,
  3;287,289,288;,
  3;289,287,290;,
  3;290,291,289;,
  3;291,290,292;,
  3;293,295,294;,
  3;295,293,296;,
  3;297,299,298;,
  3;299,297,300;,
  3;301,303,302;,
  3;303,301,304;,
  3;304,305,303;,
  3;305,304,306;,
  3;307,309,308;,
  3;309,307,310;,
  3;296,311,295;,
  3;311,296,312;,
  3;313,302,314;,
  3;302,313,301;,
  3;315,284,316;,
  3;284,315,283;,
  3;292,317,291;,
  3;317,292,318;;

  MeshNormals normals {
   319;
   0.000000;-1.000000;0.000000;,
   0.000000;-1.000000;0.000000;,
   0.000000;-1.000000;0.000000;,
   0.000000;-1.000000;0.000000;,
   0.000000;0.000000;-1.000000;,
   0.000000;0.000000;-1.000000;,
   0.000000;0.000000;-1.000000;,
   0.000000;0.000000;-1.000000;,
   1.000000;0.000000;0.000000;,
   1.000000;0.000000;0.000000;,
   1.000000;0.000000;0.000000;,
   1.000000;0.000000;0.000000;,
   0.000000;0.000000;1.000000;,
   0.000000;0.000000;1.000000;,
   0.000000;0.000000;1.000000;,
   0.000000;0.000000;1.000000;,
   -1.000000;0.000000;0.000000;,
   -1.000000;0.000000;0.000000;,
   -1.000000;0.000000;0.000000;,
   -1.000000;0.000000;0.000000;,
   -0.707107;0.000000;-0.707107;,
   -0.707107;0.000000;-0.707107;,
   -0.707107;0.000000;-0.707107;,
   -0.707107;0.000000;-0.707107;,
   -0.707107;0.000000;-0.707107;,
   -0.707107;0.000000;-0.707107;,
   0.707107;0.000000;-0.707107;,
   0.707107;0.000000;-0.707107;,
   0.707107;0.000000;-0.707107;,
   0.707107;0.000000;-0.707107;,
   0.707107;0.000000;-0.707107;,
   0.707107;0.000000;-0.707107;,
   0.707107;0.000000;0.707107;,
   0.707107;0.000000;0.707107;,
   0.707107;0.000000;0.707107;,
   0.707107;0.000000;0.707107;,
   0.707107;0.000000;0.707107;,
   0.707107;0.000000;0.707107;,
   -0.707107;0.000000;0.707107;,
   -0.707107;0.000000;0.707107;,
   -0.707107;0.000000;0.707107;,
   -0.707107;0.000000;0.707107;,
   -0.707107;0.000000;0.707107;,
   -0.707107;0.000000;0.707107;,
   0.000000;-1.000000;0.000000;,
   0.000000;-1.000000;0.000000;,
   0.000000;-1.000000;0.000000;,
   0.000000;-1.000000;0.000000;,
   0.000000;-0.574440;0.818546;,
   -0.046073;-0.667496;0.743186;,
   0.314126;0.777689;0.544541;,
   0.000000;0.819153;0.573576;,
   0.000000;-0.819151;-0.573578;,
   -0.372888;-0.760071;-0.532209;,
   -0.046073;-0.667496;0.743186;,
   0.000000;-0.574440;0.818546;,
   -0.000000;0.572712;-0.819756;,
   -0.046073;0.470070;-0.881426;,
   0.034031;0.026091;0.999080;,
   -0.093368;0.007791;0.995601;,
   0.989418;-0.145095;-0.000129;,
   0.871970;0.475686;0.115724;,
   -0.971234;0.238125;-0.000466;,
   -0.093368;0.007791;0.995601;,
   0.034031;0.026091;0.999080;,
   -0.931919;-0.355247;0.072979;,
   0.041192;0.003130;-0.999146;,
   -0.092357;0.013623;-0.995633;,
   -0.001478;0.011700;0.999931;,
   -0.124604;0.270147;0.954722;,
   0.449736;-0.893161;0.000011;,
   0.600623;-0.799533;-0.000000;,
   -0.632722;0.774379;0.000002;,
   -0.447918;0.894075;0.000057;,
   -0.124604;0.270147;0.954722;,
   -0.001478;0.011700;0.999931;,
   -0.124618;0.270174;-0.954713;,
   -0.001482;0.011693;-0.999931;,
   0.068231;0.050384;0.996397;,
   0.074136;0.050003;0.995994;,
   0.814766;0.579759;-0.005921;,
   0.970779;0.239977;0.000002;,
   -0.960052;-0.279821;0.000001;,
   -0.832828;-0.553531;0.000467;,
   0.074136;0.050003;0.995994;,
   0.068231;0.050384;0.996397;,
   0.073971;0.061528;-0.995360;,
   0.068231;0.050384;-0.996397;,
   -0.045524;-0.252367;0.966560;,
   0.974460;0.115399;0.192640;,
   -0.966753;-0.245880;0.070227;,
   -0.045524;-0.252367;0.966560;,
   -0.080651;0.229769;-0.969898;,
   -0.132789;-0.593477;0.793821;,
   0.803266;0.468270;0.368085;,
   -0.839729;-0.464875;-0.280619;,
   -0.132789;-0.593477;0.793821;,
   -0.081058;0.443999;-0.892353;,
   -0.314126;0.777689;0.544541;,
   0.046073;-0.667496;0.743186;,
   0.046073;-0.667496;0.743186;,
   0.372888;-0.760071;-0.532209;,
   0.046073;0.470070;-0.881426;,
   -0.034031;0.026091;0.999080;,
   -0.871970;0.475685;0.115724;,
   -0.989418;-0.145095;-0.000129;,
   0.093368;0.007791;0.995601;,
   0.971234;0.238125;-0.000466;,
   0.931919;-0.355247;0.072979;,
   -0.034031;0.026091;0.999080;,
   0.093368;0.007791;0.995601;,
   -0.041192;0.003129;-0.999146;,
   0.092357;0.013623;-0.995633;,
   0.001478;0.011700;0.999931;,
   -0.600623;-0.799532;0.000000;,
   -0.449736;-0.893162;0.000011;,
   0.124604;0.270147;0.954722;,
   0.632722;0.774379;0.000002;,
   0.001478;0.011700;0.999931;,
   0.124604;0.270147;0.954722;,
   0.447918;0.894075;0.000057;,
   0.124618;0.270174;-0.954713;,
   0.001482;0.011693;-0.999931;,
   -0.068231;0.050384;0.996397;,
   -0.970779;0.239977;0.000002;,
   -0.814766;0.579760;-0.005921;,
   -0.074136;0.050003;0.995994;,
   0.960052;-0.279821;0.000002;,
   -0.068231;0.050384;0.996397;,
   -0.074136;0.050003;0.995994;,
   0.832828;-0.553531;0.000467;,
   -0.073971;0.061528;-0.995360;,
   -0.068231;0.050385;-0.996397;,
   0.045523;-0.252367;0.966560;,
   -0.974460;0.115399;0.192640;,
   0.966753;-0.245880;0.070227;,
   0.045523;-0.252367;0.966560;,
   0.080651;0.229769;-0.969898;,
   0.132788;-0.593477;0.793821;,
   -0.803266;0.468270;0.368085;,
   0.839729;-0.464875;-0.280620;,
   0.132788;-0.593477;0.793821;,
   0.081058;0.443999;-0.892353;,
   -0.141098;0.000000;-0.989996;,
   -0.141098;0.000000;-0.989996;,
   -0.141098;0.000000;-0.989996;,
   -0.141097;0.000000;-0.989996;,
   -0.141097;0.000000;-0.989996;,
   -0.141097;0.000000;-0.989996;,
   0.000000;0.098169;-0.995170;,
   0.000000;0.098169;-0.995170;,
   0.000000;0.098169;-0.995170;,
   0.000000;0.098169;-0.995170;,
   0.000000;0.098169;-0.995170;,
   0.000000;0.098169;-0.995170;,
   0.000000;0.000000;-1.000000;,
   0.000000;0.000000;-1.000000;,
   0.000000;0.000000;-1.000000;,
   0.000000;0.000000;-1.000000;,
   0.000000;0.000000;-1.000000;,
   0.000000;0.000000;-1.000000;,
   0.000000;-0.667920;-0.744233;,
   0.000000;-0.667920;-0.744234;,
   0.000000;-0.667920;-0.744233;,
   0.000000;-0.667920;-0.744233;,
   0.000000;-0.667920;-0.744234;,
   0.000000;-0.667920;-0.744233;,
   -0.890335;0.000000;-0.455306;,
   -0.890335;0.000000;-0.455306;,
   -0.890335;0.000000;-0.455306;,
   -0.890335;0.000000;-0.455307;,
   -0.890335;0.000000;-0.455307;,
   -0.890335;0.000000;-0.455307;,
   0.141097;0.000000;-0.989996;,
   0.141097;0.000000;-0.989996;,
   0.141097;0.000000;-0.989996;,
   0.141098;0.000000;-0.989996;,
   0.141098;0.000000;-0.989996;,
   0.141098;0.000000;-0.989996;,
   0.000000;0.000000;-1.000000;,
   0.000000;0.000000;-1.000000;,
   0.890335;0.000000;-0.455307;,
   0.890335;0.000000;-0.455307;,
   0.890335;0.000000;-0.455307;,
   0.890335;0.000000;-0.455306;,
   0.890335;0.000000;-0.455306;,
   0.890335;0.000000;-0.455306;,
   0.000000;0.854910;-0.518776;,
   0.000000;0.854910;-0.518776;,
   0.000000;0.854910;-0.518776;,
   0.000000;0.854910;-0.518776;,
   0.000000;0.854910;-0.518776;,
   0.000000;0.854910;-0.518776;,
   -1.000000;0.000000;0.000000;,
   -1.000000;0.000000;0.000000;,
   -0.990914;-0.076564;-0.110577;,
   -0.946613;-0.183513;-0.265040;,
   -1.000000;0.000000;0.000000;,
   -1.000000;0.000000;0.000000;,
   -1.000000;0.000000;0.000000;,
   -1.000000;0.000000;0.000000;,
   -0.990914;-0.076564;-0.110577;,
   -0.809332;-0.334356;-0.482895;,
   0.000000;1.000000;0.000000;,
   0.000000;1.000000;0.000000;,
   0.000000;1.000000;0.000000;,
   0.000000;1.000000;0.000000;,
   0.000000;0.011326;0.999936;,
   0.000000;0.011326;0.999936;,
   0.000000;0.011326;0.999936;,
   0.000000;0.011326;0.999936;,
   0.000000;-0.419779;-0.907626;,
   0.000000;-0.007402;-0.999973;,
   0.000000;-0.007402;-0.999973;,
   0.000000;-0.419779;-0.907626;,
   0.000000;-0.705629;-0.708582;,
   0.000000;-0.705629;-0.708582;,
   0.000000;1.000000;0.000000;,
   0.000000;1.000000;0.000000;,
   0.000000;1.000000;0.000000;,
   -0.054916;0.435833;-0.898351;,
   -0.009168;0.657936;-0.753018;,
   -0.219562;0.442434;-0.869508;,
   -0.495219;0.006917;-0.868741;,
   0.054916;0.435833;-0.898351;,
   -1.000000;0.000000;0.000000;,
   1.000000;-0.000000;0.000000;,
   0.980682;0.138202;0.138429;,
   0.981623;-0.000000;0.190832;,
   1.000000;-0.000000;0.000000;,
   0.864062;0.503386;0.000000;,
   0.919646;0.189696;0.343898;,
   -0.572340;-0.260652;-0.777488;,
   -0.522178;-0.630289;-0.574514;,
   -0.543162;-0.639227;-0.544394;,
   -0.583596;-0.305707;-0.752302;,
   -0.445933;-0.709433;0.545755;,
   -0.780275;-0.625234;-0.015942;,
   -0.780203;-0.625262;-0.018172;,
   -0.461040;-0.711575;0.530192;,
   -0.759765;-0.608800;-0.228296;,
   -0.746289;-0.598002;-0.292312;,
   -0.522178;-0.630289;-0.574514;,
   -0.504836;-0.662421;-0.553479;,
   -0.498603;-0.684472;-0.531877;,
   -0.543162;-0.639227;-0.544394;,
   -0.862367;-0.075192;-0.500668;,
   -0.837060;-0.394335;-0.379249;,
   -0.826588;-0.417469;-0.377454;,
   -0.861573;-0.086836;-0.500151;,
   -0.841569;-0.524396;-0.129503;,
   -0.830485;-0.534705;-0.156155;,
   -0.609959;-0.338677;-0.716413;,
   -0.523778;-0.501258;-0.688765;,
   -0.860314;0.062158;-0.505962;,
   -0.860307;0.062162;-0.505972;,
   -0.521767;-0.000000;-0.853088;,
   -0.521767;0.000000;-0.853088;,
   -0.707716;-0.567092;-0.421360;,
   -0.707716;-0.567092;-0.421360;,
   1.000000;0.000000;0.000000;,
   0.946613;-0.183513;-0.265040;,
   0.990914;-0.076564;-0.110577;,
   1.000000;0.000000;0.000000;,
   1.000000;0.000000;0.000000;,
   1.000000;0.000000;0.000000;,
   1.000000;0.000000;0.000000;,
   1.000000;0.000000;0.000000;,
   0.990914;-0.076564;-0.110577;,
   0.809332;-0.334356;-0.482895;,
   0.000000;1.000000;0.000000;,
   0.009168;0.657936;-0.753018;,
   0.000000;1.000000;0.000000;,
   0.000000;1.000000;0.000000;,
   0.495219;0.006917;-0.868741;,
   0.219562;0.442434;-0.869508;,
   1.000000;0.000000;0.000000;,
   -1.000000;-0.000000;0.000000;,
   -1.000000;-0.000000;0.000000;,
   -0.981623;-0.000000;0.190832;,
   -0.980682;0.138202;0.138429;,
   -0.919646;0.189696;0.343898;,
   -0.864062;0.503386;0.000000;,
   0.572340;-0.260652;-0.777488;,
   0.583596;-0.305707;-0.752302;,
   0.543162;-0.639227;-0.544394;,
   0.522178;-0.630289;-0.574514;,
   0.445933;-0.709433;0.545755;,
   0.461041;-0.711575;0.530191;,
   0.780203;-0.625262;-0.018172;,
   0.780275;-0.625234;-0.015942;,
   0.746289;-0.598002;-0.292312;,
   0.759765;-0.608800;-0.228296;,
   0.522178;-0.630289;-0.574514;,
   0.543162;-0.639227;-0.544394;,
   0.498603;-0.684472;-0.531877;,
   0.504836;-0.662421;-0.553479;,
   0.445933;-0.709433;0.545755;,
   -0.445933;-0.709433;0.545755;,
   -0.461040;-0.711575;0.530192;,
   0.461041;-0.711575;0.530191;,
   0.862367;-0.075192;-0.500668;,
   0.861573;-0.086836;-0.500151;,
   0.826588;-0.417469;-0.377454;,
   0.837060;-0.394335;-0.379249;,
   0.830485;-0.534705;-0.156155;,
   0.841569;-0.524396;-0.129503;,
   0.000000;-0.697345;0.716735;,
   0.000000;-0.697345;0.716735;,
   0.000000;-0.697345;0.716735;,
   0.000000;-0.697345;0.716735;,
   0.523778;-0.501258;-0.688765;,
   0.609959;-0.338677;-0.716413;,
   0.860314;0.062158;-0.505962;,
   0.860307;0.062162;-0.505972;,
   0.521767;-0.000000;-0.853088;,
   0.521767;0.000000;-0.853088;,
   0.707716;-0.567092;-0.421360;,
   0.707716;-0.567092;-0.421360;;
   276;
   3;0,2,1;,
   3;2,0,3;,
   3;4,6,5;,
   3;6,4,7;,
   3;8,10,9;,
   3;10,8,11;,
   3;12,14,13;,
   3;14,12,15;,
   3;16,18,17;,
   3;18,16,19;,
   3;20,22,21;,
   3;23,25,24;,
   3;26,28,27;,
   3;29,31,30;,
   3;32,34,33;,
   3;35,37,36;,
   3;38,40,39;,
   3;41,43,42;,
   3;44,1,45;,
   3;1,44,0;,
   3;44,47,46;,
   3;47,44,45;,
   3;48,50,49;,
   3;50,48,51;,
   3;52,54,53;,
   3;54,52,55;,
   3;52,57,56;,
   3;57,52,53;,
   3;56,50,51;,
   3;50,56,57;,
   3;58,60,59;,
   3;60,58,61;,
   3;62,64,63;,
   3;64,62,65;,
   3;66,62,67;,
   3;62,66,65;,
   3;60,66,67;,
   3;66,60,61;,
   3;68,70,69;,
   3;70,68,71;,
   3;72,74,73;,
   3;74,72,75;,
   3;76,72,73;,
   3;72,76,77;,
   3;70,77,76;,
   3;77,70,71;,
   3;78,80,79;,
   3;80,78,81;,
   3;82,84,83;,
   3;84,82,85;,
   3;86,82,83;,
   3;82,86,87;,
   3;80,87,86;,
   3;87,80,81;,
   3;59,71,68;,
   3;71,59,60;,
   3;62,75,72;,
   3;75,62,63;,
   3;77,62,72;,
   3;62,77,67;,
   3;71,67,77;,
   3;67,71,60;,
   3;79,61,58;,
   3;61,79,80;,
   3;83,64,65;,
   3;64,83,84;,
   3;66,83,65;,
   3;83,66,86;,
   3;61,86,66;,
   3;86,61,80;,
   3;88,81,78;,
   3;81,88,89;,
   3;90,85,82;,
   3;85,90,91;,
   3;87,90,82;,
   3;90,87,92;,
   3;81,92,87;,
   3;92,81,89;,
   3;93,50,94;,
   3;50,93,49;,
   3;95,54,96;,
   3;54,95,53;,
   3;57,95,97;,
   3;95,57,53;,
   3;50,97,94;,
   3;97,50,57;,
   3;93,89,88;,
   3;89,93,94;,
   3;95,91,90;,
   3;91,95,96;,
   3;92,95,90;,
   3;95,92,97;,
   3;89,97,92;,
   3;97,89,94;,
   3;48,98,51;,
   3;98,48,99;,
   3;52,100,55;,
   3;100,52,101;,
   3;52,102,101;,
   3;102,52,56;,
   3;56,98,102;,
   3;98,56,51;,
   3;103,105,104;,
   3;105,103,106;,
   3;107,109,108;,
   3;109,107,110;,
   3;111,107,108;,
   3;107,111,112;,
   3;105,111,104;,
   3;111,105,112;,
   3;113,115,114;,
   3;115,113,116;,
   3;117,119,118;,
   3;119,117,120;,
   3;121,117,122;,
   3;117,121,120;,
   3;115,122,114;,
   3;122,115,121;,
   3;123,125,124;,
   3;125,123,126;,
   3;127,129,128;,
   3;129,127,130;,
   3;131,127,132;,
   3;127,131,130;,
   3;125,132,124;,
   3;132,125,131;,
   3;106,114,105;,
   3;114,106,113;,
   3;107,118,110;,
   3;118,107,117;,
   3;122,107,112;,
   3;107,122,117;,
   3;114,112,105;,
   3;112,114,122;,
   3;126,104,125;,
   3;104,126,103;,
   3;130,109,129;,
   3;109,130,108;,
   3;111,130,131;,
   3;130,111,108;,
   3;104,131,125;,
   3;131,104,111;,
   3;133,124,134;,
   3;124,133,123;,
   3;135,128,136;,
   3;128,135,127;,
   3;132,135,137;,
   3;135,132,127;,
   3;124,137,134;,
   3;137,124,132;,
   3;138,98,99;,
   3;98,138,139;,
   3;140,100,101;,
   3;100,140,141;,
   3;102,140,101;,
   3;140,102,142;,
   3;98,142,102;,
   3;142,98,139;,
   3;138,134,139;,
   3;134,138,133;,
   3;140,136,141;,
   3;136,140,135;,
   3;137,140,142;,
   3;140,137,135;,
   3;134,142,139;,
   3;142,134,137;,
   3;143,145,144;,
   3;146,148,147;,
   3;149,151,150;,
   3;152,154,153;,
   3;155,157,156;,
   3;158,160,159;,
   3;161,163,162;,
   3;164,166,165;,
   3;167,169,168;,
   3;170,172,171;,
   3;173,175,174;,
   3;176,178,177;,
   3;179,159,155;,
   3;159,179,180;,
   3;181,183,182;,
   3;184,186,185;,
   3;187,189,188;,
   3;190,192,191;,
   3;193,195,194;,
   3;195,193,196;,
   3;193,198,197;,
   3;198,193,199;,
   3;199,193,200;,
   3;201,196,202;,
   3;203,205,204;,
   3;205,203,206;,
   3;207,209,208;,
   3;209,207,210;,
   3;211,213,212;,
   3;213,211,214;,
   3;215,214,211;,
   3;214,215,216;,
   3;206,203,217;,
   3;217,219,218;,
   3;219,217,203;,
   3;220,222,221;,
   3;222,220,223;,
   3;213,224,212;,
   3;224,213,220;,
   3;193,225,200;,
   3;225,193,194;,
   3;226,228,227;,
   3;228,226,229;,
   3;227,231,230;,
   3;231,227,228;,
   3;232,234,233;,
   3;234,232,235;,
   3;236,238,237;,
   3;238,236,239;,
   3;237,241,240;,
   3;241,237,238;,
   3;242,244,243;,
   3;244,242,245;,
   3;246,248,247;,
   3;248,246,249;,
   3;247,251,250;,
   3;251,247,248;,
   3;243,253,252;,
   3;253,243,244;,
   3;254,249,246;,
   3;249,254,255;,
   3;256,235,232;,
   3;235,256,257;,
   3;240,259,258;,
   3;259,240,241;,
   3;260,262,261;,
   3;262,260,263;,
   3;260,265,264;,
   3;265,260,266;,
   3;264,267,260;,
   3;268,269,261;,
   3;204,219,203;,
   3;219,204,270;,
   3;221,224,220;,
   3;224,221,271;,
   3;205,272,204;,
   3;272,270,204;,
   3;270,272,273;,
   3;224,275,274;,
   3;275,224,271;,
   3;260,276,263;,
   3;276,260,267;,
   3;277,279,278;,
   3;279,277,280;,
   3;280,281,279;,
   3;281,280,282;,
   3;283,285,284;,
   3;285,283,286;,
   3;287,289,288;,
   3;289,287,290;,
   3;290,291,289;,
   3;291,290,292;,
   3;293,295,294;,
   3;295,293,296;,
   3;297,299,298;,
   3;299,297,300;,
   3;301,303,302;,
   3;303,301,304;,
   3;304,305,303;,
   3;305,304,306;,
   3;307,309,308;,
   3;309,307,310;,
   3;296,311,295;,
   3;311,296,312;,
   3;313,302,314;,
   3;302,313,301;,
   3;315,284,316;,
   3;284,315,283;,
   3;292,317,291;,
   3;317,292,318;;
  }

  MeshTextureCoords tc0 {
   319;
   0.563265;0.781284;,
   0.563265;0.935516;,
   0.569489;0.929292;,
   0.569489;0.787508;,
   0.601834;0.237299;,
   0.601834;0.021860;,
   0.499716;0.021860;,
   0.499716;0.237299;,
   0.606317;0.237299;,
   0.978689;0.237299;,
   0.978689;0.021860;,
   0.606317;0.021860;,
   0.031377;0.237299;,
   0.118519;0.237299;,
   0.118519;0.021860;,
   0.031377;0.021860;,
   0.122861;0.237299;,
   0.495233;0.237299;,
   0.495233;0.021860;,
   0.122861;0.021860;,
   0.499716;0.021860;,
   0.495233;0.021860;,
   0.495233;0.237299;,
   0.495233;0.237299;,
   0.499716;0.237299;,
   0.499716;0.021860;,
   0.601834;0.237299;,
   0.606317;0.237299;,
   0.606317;0.021860;,
   0.606317;0.021860;,
   0.601834;0.021860;,
   0.601834;0.237299;,
   0.026611;0.237299;,
   0.031377;0.237299;,
   0.031377;0.021860;,
   0.031377;0.021860;,
   0.026611;0.021860;,
   0.026611;0.237299;,
   0.118519;0.237299;,
   0.122861;0.237299;,
   0.122861;0.021860;,
   0.122861;0.021860;,
   0.118519;0.021860;,
   0.118519;0.237299;,
   0.046251;0.781284;,
   0.046251;0.935517;,
   0.040026;0.787509;,
   0.040027;0.929293;,
   0.849352;0.403757;,
   0.849352;0.380186;,
   0.844325;0.380186;,
   0.844325;0.403757;,
   0.835654;0.403757;,
   0.835654;0.380186;,
   0.829971;0.380186;,
   0.829971;0.403757;,
   0.839537;0.403757;,
   0.839537;0.380186;,
   0.849352;0.276643;,
   0.849352;0.270462;,
   0.844325;0.270462;,
   0.844325;0.276643;,
   0.835654;0.270462;,
   0.829971;0.270462;,
   0.829971;0.276643;,
   0.835654;0.276643;,
   0.839537;0.276643;,
   0.839537;0.270462;,
   0.849352;0.262491;,
   0.849352;0.251013;,
   0.844325;0.251013;,
   0.844325;0.262491;,
   0.835654;0.262491;,
   0.835654;0.251013;,
   0.829971;0.251013;,
   0.829971;0.262491;,
   0.839537;0.251013;,
   0.839537;0.262491;,
   0.849352;0.302516;,
   0.849352;0.288613;,
   0.844325;0.288613;,
   0.844325;0.302516;,
   0.835654;0.302516;,
   0.835654;0.288613;,
   0.829971;0.288613;,
   0.829971;0.302516;,
   0.839537;0.288613;,
   0.839537;0.302516;,
   0.849352;0.367495;,
   0.844325;0.367495;,
   0.835654;0.367495;,
   0.829971;0.367495;,
   0.839537;0.367495;,
   0.849352;0.368750;,
   0.844325;0.368750;,
   0.835654;0.368750;,
   0.829971;0.368750;,
   0.839537;0.368750;,
   0.844325;0.437579;,
   0.849352;0.437579;,
   0.829971;0.437579;,
   0.835654;0.437579;,
   0.839537;0.437579;,
   0.849352;0.588253;,
   0.844325;0.588253;,
   0.844325;0.599515;,
   0.849352;0.599515;,
   0.835654;0.599515;,
   0.835654;0.588253;,
   0.829971;0.588253;,
   0.829971;0.599515;,
   0.839537;0.588253;,
   0.839537;0.599515;,
   0.849352;0.606097;,
   0.844325;0.606097;,
   0.844325;0.616020;,
   0.849352;0.616020;,
   0.835654;0.606097;,
   0.829971;0.606097;,
   0.829971;0.616020;,
   0.835654;0.616020;,
   0.839537;0.616020;,
   0.839537;0.606097;,
   0.849352;0.512469;,
   0.844325;0.512469;,
   0.844325;0.576970;,
   0.849352;0.576970;,
   0.835654;0.512469;,
   0.829971;0.512469;,
   0.829971;0.576970;,
   0.835654;0.576970;,
   0.839537;0.576970;,
   0.839537;0.512469;,
   0.849352;0.445651;,
   0.844325;0.445651;,
   0.835654;0.445651;,
   0.829971;0.445651;,
   0.839537;0.445651;,
   0.849352;0.432448;,
   0.844325;0.432448;,
   0.835654;0.432448;,
   0.829971;0.432448;,
   0.839537;0.432448;,
   0.650836;0.673673;,
   0.650826;0.919438;,
   0.669952;0.919439;,
   0.669952;0.919439;,
   0.669961;0.673673;,
   0.650836;0.673673;,
   0.669961;0.673673;,
   0.943204;0.673683;,
   0.943204;0.660485;,
   0.943204;0.660485;,
   0.669962;0.660475;,
   0.669961;0.673673;,
   0.669952;0.919439;,
   0.669952;0.942347;,
   0.943194;0.942357;,
   0.943194;0.942357;,
   0.943195;0.919449;,
   0.669952;0.919439;,
   0.669950;0.974930;,
   0.943193;0.974940;,
   0.943194;0.942357;,
   0.943194;0.942357;,
   0.669952;0.942347;,
   0.669950;0.974930;,
   0.637961;0.673673;,
   0.637950;0.919437;,
   0.650826;0.919438;,
   0.650826;0.919438;,
   0.650836;0.673673;,
   0.637961;0.673673;,
   0.962330;0.673684;,
   0.943204;0.673683;,
   0.943195;0.919449;,
   0.943195;0.919449;,
   0.962321;0.919449;,
   0.962330;0.673684;,
   0.669961;0.673673;,
   0.943204;0.673683;,
   0.975206;0.673685;,
   0.962330;0.673684;,
   0.962321;0.919449;,
   0.962321;0.919449;,
   0.975197;0.919450;,
   0.975206;0.673685;,
   0.943204;0.660485;,
   0.943205;0.636973;,
   0.669963;0.636963;,
   0.669963;0.636963;,
   0.669962;0.660475;,
   0.943204;0.660485;,
   0.104703;0.360643;,
   0.093479;0.334262;,
   0.080397;0.349120;,
   0.072368;0.360697;,
   0.771614;0.359754;,
   0.771910;0.328780;,
   0.112326;0.260943;,
   0.102714;0.262785;,
   0.060716;0.352777;,
   0.062244;0.365561;,
   0.104739;0.374357;,
   0.104990;0.556864;,
   0.771849;0.569820;,
   0.771614;0.359754;,
   0.771849;0.569820;,
   0.802820;0.569786;,
   0.802586;0.359719;,
   0.771614;0.359754;,
   0.032426;0.552670;,
   0.043604;0.554677;,
   0.043226;0.376745;,
   0.032007;0.378804;,
   0.018974;0.548810;,
   0.018526;0.382738;,
   0.104703;0.360643;,
   0.072368;0.360697;,
   0.072109;0.374461;,
   0.059026;0.376266;,
   0.072109;0.374461;,
   0.072368;0.360697;,
   0.062244;0.365561;,
   0.059354;0.555094;,
   0.094175;0.269111;,
   0.584231;0.903229;,
   0.584231;0.919095;,
   0.584231;0.919095;,
   0.584231;0.903229;,
   0.584231;0.928883;,
   0.611296;0.932914;,
   0.090453;0.332628;,
   0.079251;0.345715;,
   0.080397;0.349120;,
   0.093479;0.334262;,
   0.769339;0.328517;,
   0.112009;0.258974;,
   0.112326;0.260943;,
   0.771910;0.328780;,
   0.102614;0.258754;,
   0.102714;0.262785;,
   0.057138;0.353979;,
   0.057792;0.365689;,
   0.062244;0.365561;,
   0.060716;0.352777;,
   0.042950;0.372871;,
   0.031287;0.374985;,
   0.032007;0.378804;,
   0.043226;0.376745;,
   0.016600;0.379904;,
   0.018526;0.382738;,
   0.056776;0.372696;,
   0.059026;0.376266;,
   0.056776;0.372696;,
   0.059026;0.376266;,
   0.091477;0.266364;,
   0.094175;0.269111;,
   0.091477;0.266364;,
   0.094175;0.269111;,
   0.104995;0.570571;,
   0.072689;0.570597;,
   0.080729;0.582150;,
   0.093839;0.596981;,
   0.112869;0.670237;,
   0.772220;0.600790;,
   0.771849;0.569820;,
   0.103263;0.668471;,
   0.061082;0.578517;,
   0.062583;0.565765;,
   0.072400;0.556858;,
   0.072400;0.556858;,
   0.104995;0.570571;,
   0.072689;0.570597;,
   0.062583;0.565765;,
   0.072689;0.570597;,
   0.094697;0.662166;,
   0.597285;0.950794;,
   0.597285;0.950794;,
   0.597285;0.966660;,
   0.597285;0.966660;,
   0.570220;0.980479;,
   0.597285;0.976448;,
   0.090815;0.598622;,
   0.093839;0.596981;,
   0.080729;0.582150;,
   0.079590;0.585557;,
   0.772220;0.600790;,
   0.772220;0.600790;,
   0.112869;0.670237;,
   0.112755;0.672184;,
   0.103263;0.668471;,
   0.103208;0.672533;,
   0.057511;0.577325;,
   0.061082;0.578517;,
   0.062583;0.565765;,
   0.058144;0.565645;,
   0.806966;0.566988;,
   0.806737;0.362508;,
   0.802586;0.359719;,
   0.802820;0.569786;,
   0.043344;0.558536;,
   0.043604;0.554677;,
   0.032426;0.552670;,
   0.031726;0.556475;,
   0.018974;0.548810;,
   0.017091;0.551648;,
   0.016600;0.379904;,
   0.017091;0.551648;,
   0.018974;0.548810;,
   0.018526;0.382738;,
   0.059354;0.555094;,
   0.057121;0.558659;,
   0.057121;0.558659;,
   0.059354;0.555094;,
   0.092002;0.664929;,
   0.094697;0.662166;,
   0.094697;0.662166;,
   0.092002;0.664929;;
  }
 }
}