xof 0303txt 0032

// DirectX - from MilkShape3D

Frame VWEAPFrame
{
    FrameTransformMatrix
    {
        1.000000,0.000000,0.000000,0.000000,
        0.000000,1.000000,0.000000,0.000000,
        0.000000,0.000000,1.000000,0.000000,
        0.000000,0.000000,0.000000,1.000000;;
    }

    Mesh VWEAPMesh
    {
        683;
        -1.810228;1.549132;-0.403412;,
        -2.461879;1.123488;-3.437821;,
        -2.375004;2.102934;-3.264834;,
        -1.756386;1.829888;-11.887339;,
        -0.960540;2.080425;-12.616993;,
        -1.477225;2.535503;-11.864648;,
        -1.544832;2.835863;-3.250854;,
        -1.452976;2.417771;-1.319649;,
        -1.810228;1.549132;-0.403412;,
        -2.426304;2.237677;-6.465478;,
        -2.489577;0.325066;-9.059750;,
        -2.166103;1.583239;-10.491321;,
        -2.375004;2.102934;-3.264834;,
        -2.461879;1.123488;-3.437821;,
        -2.425263;1.706913;-4.021247;,
        -1.477225;2.535503;-11.864648;,
        -0.960540;2.080425;-12.616993;,
        -0.960537;2.789379;-11.863541;,
        -1.431195;3.018737;-10.471775;,
        -1.477225;2.535503;-11.864648;,
        -0.960537;2.789379;-11.863541;,
        -1.756386;1.829888;-11.887339;,
        -2.166103;1.583239;-10.491321;,
        -2.426304;2.237677;-6.465478;,
        -2.166103;1.583239;-10.491321;,
        -1.477225;2.535503;-11.864648;,
        -2.426304;2.237677;-6.465478;,
        -0.960540;0.464789;0.754311;,
        -1.666042;0.325065;0.418131;,
        -0.960537;3.269197;-8.995843;,
        -1.431195;3.018737;-10.471775;,
        -2.426304;2.237677;-6.465478;,
        -2.375004;2.102934;-3.264834;,
        -2.418966;1.920462;-4.818219;,
        -2.418966;1.920462;-4.818219;,
        -2.444962;1.706913;-5.615194;,
        -1.431195;3.018737;-10.471775;,
        -2.426304;2.237677;-6.465478;,
        -1.477225;2.535503;-11.864648;,
        -1.431195;3.018737;-10.471775;,
        -1.544832;2.835863;-3.250854;,
        -2.426304;2.237677;-6.465478;,
        -2.461002;1.123488;-6.198619;,
        -1.810228;1.549132;-0.403412;,
        -2.494478;0.325798;-3.224273;,
        -2.461879;1.123488;-3.437821;,
        -0.960537;3.103598;-6.457136;,
        -2.494478;0.325798;-3.224273;,
        -1.810228;1.549132;-0.403412;,
        -2.375004;2.102934;-3.264834;,
        -2.425263;1.706913;-4.021247;,
        -0.960537;3.269197;-8.995843;,
        -0.960537;3.103598;-6.457136;,
        -0.960537;2.907957;-3.233347;,
        -1.544832;2.835863;-3.250854;,
        -0.960537;1.866652;-0.242232;,
        -1.452976;2.417771;-1.319649;,
        -0.960537;2.907957;-3.233347;,
        -0.960537;2.907957;-3.233347;,
        -1.452976;2.417771;-1.319649;,
        -0.960537;1.866652;-0.242232;,
        -1.810228;1.549132;-0.403412;,
        -1.544832;2.835863;-3.250854;,
        -0.960540;0.464789;0.754311;,
        -1.810228;1.549132;-0.403412;,
        -2.481003;0.325885;-6.412143;,
        -2.426304;2.237677;-6.465478;,
        -2.461002;1.123488;-6.198619;,
        -2.489577;0.325066;-9.059750;,
        0.540795;1.123488;-3.437821;,
        -0.110845;1.549132;-0.403412;,
        0.453931;2.102934;-3.264834;,
        -0.164696;1.829889;-11.887339;,
        -0.443848;2.535503;-11.864648;,
        -0.468097;2.417771;-1.319649;,
        -0.376242;2.835863;-3.250854;,
        -0.110845;1.549132;-0.403412;,
        0.568494;0.325066;-9.059750;,
        0.505231;2.237677;-6.465478;,
        0.245020;1.583239;-10.491321;,
        0.540795;1.123488;-3.437821;,
        0.453931;2.102934;-3.264834;,
        0.504179;1.706913;-4.021246;,
        -0.960540;2.080425;-12.616993;,
        -0.443848;2.535503;-11.864648;,
        -0.443848;2.535503;-11.864648;,
        -0.489878;3.018737;-10.471775;,
        -0.960537;2.789379;-11.863541;,
        -0.443848;2.535503;-11.864648;,
        -0.164696;1.829889;-11.887339;,
        0.245020;1.583239;-10.491321;,
        -0.376242;2.835863;-3.250854;,
        0.505231;2.237677;-6.465478;,
        0.453931;2.102934;-3.264834;,
        0.505231;2.237677;-6.465478;,
        -0.960540;0.464789;0.754311;,
        -0.255042;0.325065;0.418132;,
        -0.489878;3.018737;-10.471775;,
        -0.960537;3.269197;-8.995843;,
        -0.960537;2.789379;-11.863541;,
        0.505231;2.237677;-6.465478;,
        0.497882;1.920462;-4.818219;,
        0.497882;1.920462;-4.818219;,
        0.505231;2.237677;-6.465478;,
        0.523879;1.706913;-5.615193;,
        0.505231;2.237677;-6.465478;,
        -0.489878;3.018737;-10.471775;,
        -0.443848;2.535503;-11.864648;,
        -0.489878;3.018737;-10.471775;,
        0.523879;1.706913;-5.615193;,
        0.505231;2.237677;-6.465478;,
        0.539918;1.123488;-6.198619;,
        0.573390;0.325798;-3.224273;,
        -0.110845;1.549132;-0.403412;,
        0.540795;1.123488;-3.437821;,
        -0.376242;2.835863;-3.250854;,
        -0.110845;1.549132;-0.403412;,
        0.573390;0.325798;-3.224273;,
        -0.255042;0.325065;0.418132;,
        -0.489878;3.018737;-10.471775;,
        -0.960537;3.103598;-6.457136;,
        -0.960537;2.907957;-3.233347;,
        -0.960537;3.103598;-6.457136;,
        -0.376242;2.835863;-3.250854;,
        -0.468097;2.417771;-1.319649;,
        -0.960537;2.907957;-3.233347;,
        -0.468097;2.417771;-1.319649;,
        -0.960537;2.907957;-3.233347;,
        -0.376242;2.835863;-3.250854;,
        -0.468097;2.417771;-1.319649;,
        -0.110845;1.549132;-0.403412;,
        0.453931;2.102934;-3.264834;,
        -0.110845;1.549132;-0.403412;,
        -0.960540;0.464789;0.754311;,
        -0.960537;1.866652;-0.242232;,
        0.559917;0.325817;-6.412125;,
        0.539918;1.123488;-6.198619;,
        0.505231;2.237677;-6.465478;,
        0.568494;0.325066;-9.059750;,
        -2.294623;0.324577;-6.412102;,
        -2.301801;0.325065;-9.059749;,
        -2.481003;0.325885;-6.412143;,
        -2.301801;0.325065;-9.059749;,
        -2.489577;0.325066;-9.059750;,
        -2.481003;0.325885;-6.412143;,
        0.568494;0.325066;-9.059750;,
        -2.489577;0.325066;-9.059750;,
        -2.301801;0.325065;-9.059749;,
        0.568494;0.325066;-9.059750;,
        0.373533;0.324697;-6.412069;,
        0.559917;0.325817;-6.412125;,
        0.568494;0.325066;-9.059750;,
        0.380709;0.325065;-9.059749;,
        0.373533;0.324697;-6.412069;,
        0.573390;0.325798;-3.224273;,
        -2.494478;0.325798;-3.224273;,
        -1.666042;0.325065;0.418131;,
        0.573390;0.325798;-3.224273;,
        -1.666042;0.325065;0.418131;,
        -0.255042;0.325065;0.418132;,
        -0.255042;0.325065;0.418132;,
        -1.666042;0.325065;0.418131;,
        -0.960540;0.464789;0.754311;,
        -2.489577;0.325066;-9.059750;,
        0.568494;0.325066;-9.059750;,
        0.245020;1.583239;-10.491321;,
        0.245020;1.583239;-10.491321;,
        -2.166103;1.583239;-10.491321;,
        -2.166103;1.583239;-10.491321;,
        0.245020;1.583239;-10.491321;,
        -0.164696;1.829889;-11.887339;,
        -0.164696;1.829889;-11.887339;,
        -1.756386;1.829888;-11.887339;,
        -1.756386;1.829888;-11.887339;,
        -0.960540;2.080425;-12.616993;,
        -2.301801;0.325065;-9.059749;,
        0.380709;0.325065;-9.059749;,
        0.568494;0.325066;-9.059750;,
        -0.970396;0.632827;-14.104815;,
        -2.064055;1.382555;-14.104814;,
        -2.204424;0.150551;-14.104814;,
        -0.970396;0.632827;-14.104815;,
        -0.970396;1.966891;-14.104814;,
        0.290320;0.168972;-14.104814;,
        -0.631718;-0.660114;-14.104814;,
        -0.631719;-0.660114;-8.233955;,
        0.131772;1.398768;-14.104814;,
        -0.970396;1.966891;-14.104814;,
        0.131772;1.398768;-14.104814;,
        0.290319;0.168972;-8.233955;,
        0.131771;1.398768;-8.233955;,
        -0.631718;-0.660114;-14.104814;,
        -1.270244;-0.664829;-8.233955;,
        -0.631719;-0.660114;-8.233955;,
        0.290320;0.168972;-14.104814;,
        -0.631718;-0.660114;-14.104814;,
        -1.270243;-0.664829;-14.104814;,
        -2.204425;0.150551;-8.233955;,
        -1.270244;-0.664829;-8.233955;,
        -1.270243;-0.664829;-14.104814;,
        -2.204424;0.150551;-14.104814;,
        -0.970397;1.966891;-8.233955;,
        0.290319;0.168972;-8.233955;,
        -2.204424;0.150551;-14.104814;,
        -2.064055;1.382554;-8.233955;,
        -2.204424;0.150551;-14.104814;,
        -2.064055;1.382555;-14.104814;,
        -2.064055;1.382554;-8.233955;,
        0.290320;0.168972;-14.104814;,
        0.290319;0.168972;-8.233955;,
        -0.970396;1.966891;-14.104814;,
        -2.064055;1.382554;-8.233955;,
        -0.970396;1.966891;-14.104814;,
        -2.204425;0.150551;-8.233955;,
        -0.631718;-0.660114;-14.104814;,
        -1.270243;-0.664829;-14.104814;,
        -1.270244;-0.664829;-8.233955;,
        -0.957779;-0.743340;-12.582788;,
        -0.399632;-1.065586;-12.582788;,
        -0.399632;-1.065586;-8.245409;,
        -1.515927;-1.710079;-12.582788;,
        -0.957779;-0.743340;-12.582788;,
        -1.515927;-1.065586;-12.582789;,
        -0.957779;-2.032326;-12.582789;,
        -1.515927;-1.710079;-8.245409;,
        -0.957780;-2.032326;-8.245409;,
        -0.957779;-2.032326;-12.582789;,
        -1.515927;-1.710079;-12.582788;,
        -1.515927;-1.710079;-8.245409;,
        -0.399632;-1.065586;-12.582788;,
        -0.957779;-0.743340;-12.582788;,
        -0.399632;-1.065586;-8.245409;,
        -0.957780;-0.743340;-8.245409;,
        -1.515927;-1.710079;-12.582788;,
        -0.399632;-1.710079;-12.582788;,
        -0.399632;-1.065586;-12.582788;,
        -1.515927;-1.710079;-12.582788;,
        -0.957779;-2.032326;-12.582789;,
        -0.399632;-1.710079;-12.582788;,
        -0.957779;-2.032326;-12.582789;,
        -0.957780;-2.032326;-8.245409;,
        -0.399633;-1.710079;-8.245409;,
        -0.399632;-1.065586;-12.582788;,
        -0.399632;-1.710079;-12.582788;,
        -0.399633;-1.710079;-8.245409;,
        -0.399632;-1.710079;-12.582788;,
        -0.957779;-2.032326;-12.582789;,
        -0.399633;-1.710079;-8.245409;,
        -1.515927;-1.710079;-12.582788;,
        -1.515927;-1.065586;-12.582789;,
        -1.515927;-1.710079;-8.245409;,
        -1.515927;-1.065586;-12.582789;,
        -1.515927;-1.065586;-8.245409;,
        -1.515927;-1.710079;-8.245409;,
        -0.399633;-1.710079;-8.245409;,
        -1.515927;-1.065586;-12.582789;,
        -0.957780;-0.743340;-8.245409;,
        -1.515927;-1.065586;-8.245409;,
        -1.515927;-1.065586;-12.582789;,
        -0.957779;-0.743340;-12.582788;,
        -0.957780;-0.743340;-8.245409;,
        -1.158598;-2.886317;-15.716244;,
        -0.970223;-2.424681;-17.353405;,
        -1.158600;-2.140874;-6.701430;,
        -1.158598;-2.886317;-15.716244;,
        -1.158600;-2.140874;-6.701430;,
        -0.970223;-4.022738;-13.498617;,
        -0.970223;-4.022738;-13.498617;,
        -0.970223;-3.270076;-15.912601;,
        -1.158598;-2.886317;-15.716244;,
        -1.158598;-2.886317;-15.716244;,
        -0.970223;-3.021054;-16.445101;,
        -0.970223;-2.424681;-17.353405;,
        -0.781847;-2.886316;-15.716244;,
        -0.781849;-2.140873;-6.701431;,
        -0.970223;-2.424681;-17.353405;,
        -0.970223;-4.022738;-13.498617;,
        -0.970224;-4.161157;-7.982092;,
        -0.781849;-2.140873;-6.701431;,
        -0.970223;-4.022738;-13.498617;,
        -1.158600;-2.140874;-6.701430;,
        -0.781849;-2.140873;-6.701431;,
        -1.158600;-2.140874;-6.701430;,
        -0.781847;-2.886316;-15.716244;,
        -0.970223;-4.022738;-13.498617;,
        -0.781849;-2.140873;-6.701431;,
        -0.781847;-2.886316;-15.716244;,
        -0.970223;-3.021054;-16.445101;,
        -0.970223;-2.424681;-17.353405;,
        -0.781849;-2.140873;-6.701431;,
        -1.158600;-2.140874;-6.701430;,
        -0.781847;-2.886316;-15.716244;,
        -0.970223;-3.270076;-15.912601;,
        -0.970223;-4.022738;-13.498617;,
        -0.970223;-3.270076;-15.912601;,
        -0.781847;-2.886316;-15.716244;,
        -1.158598;-2.886317;-15.716244;,
        -0.781847;-2.886316;-15.716244;,
        -0.970223;-3.021054;-16.445101;,
        -1.158598;-2.886317;-15.716244;,
        0.028244;0.326515;-4.818220;,
        0.539918;1.123488;-6.198619;,
        0.559917;0.325817;-6.412125;,
        0.028244;0.326515;-4.818220;,
        0.523879;1.706913;-5.615193;,
        0.028244;0.326515;-4.818220;,
        0.497882;1.920462;-4.818219;,
        0.523879;1.706913;-5.615193;,
        0.028244;0.326515;-4.818220;,
        0.504179;1.706913;-4.021246;,
        0.497882;1.920462;-4.818219;,
        0.028244;0.326515;-4.818220;,
        0.540795;1.123488;-3.437821;,
        0.504179;1.706913;-4.021246;,
        0.028244;0.326515;-4.818220;,
        0.573390;0.325798;-3.224273;,
        0.540795;1.123488;-3.437821;,
        0.028244;0.326515;-4.818220;,
        0.558747;-0.470458;-3.437821;,
        0.573390;0.325798;-3.224273;,
        0.028244;0.326515;-4.818220;,
        0.558747;-1.053883;-4.021247;,
        0.558747;-0.470458;-3.437821;,
        0.028244;0.326515;-4.818220;,
        0.558747;-1.267431;-4.818220;,
        0.558747;-1.053883;-4.021247;,
        0.028244;0.326515;-4.818220;,
        0.558747;-1.053883;-5.615192;,
        0.558747;-1.267431;-4.818220;,
        0.558747;-0.470458;-6.198618;,
        0.028244;0.326515;-4.818220;,
        0.559917;0.325817;-6.412125;,
        0.558747;-0.470458;-6.198618;,
        -1.949338;0.326516;-4.818220;,
        -2.481003;0.325885;-6.412143;,
        -2.461002;1.123488;-6.198619;,
        -1.949338;0.326516;-4.818220;,
        -2.461002;1.123488;-6.198619;,
        -2.444962;1.706913;-5.615194;,
        -1.949338;0.326516;-4.818220;,
        -2.444962;1.706913;-5.615194;,
        -2.418966;1.920462;-4.818219;,
        -1.949338;0.326516;-4.818220;,
        -2.418966;1.920462;-4.818219;,
        -2.425263;1.706913;-4.021247;,
        -1.949338;0.326516;-4.818220;,
        -2.425263;1.706913;-4.021247;,
        -2.461879;1.123488;-3.437821;,
        -1.949338;0.326516;-4.818220;,
        -2.461879;1.123488;-3.437821;,
        -2.494478;0.325798;-3.224273;,
        -1.949338;0.326516;-4.818220;,
        -2.494478;0.325798;-3.224273;,
        -2.479841;-0.470458;-3.437823;,
        -1.949338;0.326516;-4.818220;,
        -2.479841;-0.470458;-3.437823;,
        -2.479841;-1.053883;-4.021248;,
        -1.949338;0.326516;-4.818220;,
        -2.479841;-1.267431;-4.818220;,
        -2.479841;-1.267431;-4.818220;,
        -2.479841;-1.053883;-5.615193;,
        -1.949338;0.326516;-4.818220;,
        -2.479841;-1.053883;-5.615193;,
        -2.479841;-0.470457;-6.198619;,
        -2.479841;-0.470457;-6.198619;,
        -2.481003;0.325885;-6.412143;,
        -2.479841;-1.053883;-4.021248;,
        -2.479841;-0.470458;-3.437823;,
        -2.277504;-0.473355;-3.437822;,
        -0.960547;-0.367613;-2.288046;,
        -0.960547;0.325421;-2.232768;,
        0.248472;0.326458;-2.601452;,
        -0.018320;-1.946685;-9.011475;,
        -0.960546;-2.453466;-6.457136;,
        0.325206;-1.587547;-6.465477;,
        -0.960546;-2.453466;-6.457136;,
        -0.397138;-2.388478;-9.002931;,
        -0.960546;-2.468389;-8.995842;,
        -2.411681;0.325798;-3.224271;,
        -2.169566;0.326459;-2.601454;,
        -2.201299;-1.401899;-3.648516;,
        -2.479841;-1.267431;-4.818220;,
        -2.245385;-1.056781;-4.021247;,
        -0.960547;-2.194654;-3.792014;,
        0.280205;-1.401899;-3.648515;,
        -0.960546;-2.453466;-6.457136;,
        -1.902772;-1.946685;-9.011476;,
        -2.246299;-1.587546;-6.465478;,
        -0.960546;-2.453466;-6.457136;,
        -0.960546;-2.453466;-6.457136;,
        -2.201299;-1.401899;-3.648516;,
        -0.960547;-2.194654;-3.792014;,
        -2.479841;-1.267431;-4.818220;,
        -2.245385;-1.056781;-4.021247;,
        -2.239861;-1.270329;-4.818220;,
        -0.960547;-2.194654;-3.792014;,
        -0.960547;-1.219705;-2.679267;,
        -0.215213;-0.896709;-2.700060;,
        -0.215213;-0.896709;-2.700060;,
        0.280205;-1.401899;-3.648515;,
        -0.960547;-2.194654;-3.792014;,
        0.558747;-1.053883;-5.615192;,
        0.318768;-1.270330;-4.818219;,
        0.558747;-1.267431;-4.818220;,
        -2.481003;0.325885;-6.412143;,
        -2.479841;-0.470457;-6.198619;,
        -2.276735;-0.473356;-6.198618;,
        -2.239861;-1.270329;-4.818220;,
        -2.245385;-1.056781;-4.021247;,
        -2.201299;-1.401899;-3.648516;,
        -0.960547;-0.367613;-2.288046;,
        -0.215213;-0.896709;-2.700060;,
        -0.960547;-1.219705;-2.679267;,
        -2.481003;0.325885;-6.412143;,
        -2.276735;-0.473356;-6.198618;,
        -2.294623;0.324577;-6.412102;,
        -2.479841;-1.053883;-4.021248;,
        -2.277504;-0.473355;-3.437822;,
        -2.245385;-1.056781;-4.021247;,
        -2.201299;-1.401899;-3.648516;,
        -2.277504;-0.473355;-3.437822;,
        -2.411681;0.325798;-3.224271;,
        0.558747;-1.267431;-4.818220;,
        0.324291;-1.056781;-4.021246;,
        0.558747;-1.053883;-4.021247;,
        -0.215213;-0.896709;-2.700060;,
        -0.960547;-0.367613;-2.288046;,
        0.248472;0.326458;-2.601452;,
        -2.239861;-1.270329;-4.818220;,
        -2.246299;-1.587546;-6.465478;,
        -2.262665;-1.056781;-5.615193;,
        0.558747;-1.267431;-4.818220;,
        0.318768;-1.270330;-4.818219;,
        0.324291;-1.056781;-4.021246;,
        -0.215213;-0.896709;-2.700060;,
        0.248472;0.326458;-2.601452;,
        0.280205;-1.401899;-3.648515;,
        -1.705881;-0.896708;-2.700061;,
        -2.201299;-1.401899;-3.648516;,
        -2.169566;0.326459;-2.601454;,
        -2.276735;-0.473356;-6.198618;,
        -2.262665;-1.056781;-5.615193;,
        -2.246299;-1.587546;-6.465478;,
        -1.523954;-2.388477;-9.002932;,
        -0.960546;-2.468389;-8.995842;,
        -1.011609;-0.800115;-8.275116;,
        0.280205;-1.401899;-3.648515;,
        0.490586;0.325798;-3.224271;,
        0.356410;-0.473356;-3.437821;,
        0.490586;0.325798;-3.224271;,
        0.280205;-1.401899;-3.648515;,
        0.248472;0.326458;-2.601452;,
        0.355642;-0.473356;-6.198617;,
        0.373533;0.324697;-6.412069;,
        0.325206;-1.587547;-6.465477;,
        -2.479841;-1.053883;-5.615193;,
        -2.479841;-1.267431;-4.818220;,
        -2.239861;-1.270329;-4.818220;,
        -2.301801;0.325065;-9.059749;,
        -1.902772;-1.946685;-9.011476;,
        -1.011609;-0.800115;-8.275116;,
        -2.479841;-1.053883;-5.615193;,
        -2.239861;-1.270329;-4.818220;,
        -2.262665;-1.056781;-5.615193;,
        0.325206;-1.587547;-6.465477;,
        0.380709;0.325065;-9.059749;,
        -0.018320;-1.946685;-9.011475;,
        0.380709;0.325065;-9.059749;,
        0.325206;-1.587547;-6.465477;,
        0.373533;0.324697;-6.412069;,
        -1.902772;-1.946685;-9.011476;,
        -1.523954;-2.388477;-9.002932;,
        -1.011609;-0.800115;-8.275116;,
        0.558747;-0.470458;-3.437821;,
        0.356410;-0.473356;-3.437821;,
        0.490586;0.325798;-3.224271;,
        -0.018320;-1.946685;-9.011475;,
        -0.397138;-2.388478;-9.002931;,
        -0.960546;-2.453466;-6.457136;,
        -2.276735;-0.473356;-6.198618;,
        -2.246299;-1.587546;-6.465478;,
        -2.294623;0.324577;-6.412102;,
        -0.960546;-2.468389;-8.995842;,
        -0.397138;-2.388478;-9.002931;,
        -1.011609;-0.800115;-8.275116;,
        -2.246299;-1.587546;-6.465478;,
        -1.902772;-1.946685;-9.011476;,
        -2.301801;0.325065;-9.059749;,
        0.558747;-0.470458;-3.437821;,
        0.490586;0.325798;-3.224271;,
        0.573390;0.325798;-3.224273;,
        0.325206;-1.587547;-6.465477;,
        -0.960546;-2.453466;-6.457136;,
        0.280205;-1.401899;-3.648515;,
        0.559917;0.325817;-6.412125;,
        0.355642;-0.473356;-6.198617;,
        0.558747;-0.470458;-6.198618;,
        0.559917;0.325817;-6.412125;,
        0.373533;0.324697;-6.412069;,
        0.355642;-0.473356;-6.198617;,
        0.558747;-1.053883;-4.021247;,
        0.356410;-0.473356;-3.437821;,
        0.558747;-0.470458;-3.437821;,
        -2.201299;-1.401899;-3.648516;,
        -2.246299;-1.587546;-6.465478;,
        -2.239861;-1.270329;-4.818220;,
        0.355642;-0.473356;-6.198617;,
        0.325206;-1.587547;-6.465477;,
        0.341572;-1.056781;-5.615192;,
        0.318768;-1.270330;-4.818219;,
        0.341572;-1.056781;-5.615192;,
        0.325206;-1.587547;-6.465477;,
        0.318768;-1.270330;-4.818219;,
        0.280205;-1.401899;-3.648515;,
        0.324291;-1.056781;-4.021246;,
        0.280205;-1.401899;-3.648515;,
        0.318768;-1.270330;-4.818219;,
        0.325206;-1.587547;-6.465477;,
        0.356410;-0.473356;-3.437821;,
        0.324291;-1.056781;-4.021246;,
        0.280205;-1.401899;-3.648515;,
        -2.277504;-0.473355;-3.437822;,
        -2.201299;-1.401899;-3.648516;,
        -2.245385;-1.056781;-4.021247;,
        -0.397138;-2.388478;-9.002931;,
        -0.018320;-1.946685;-9.011475;,
        -1.011609;-0.800115;-8.275116;,
        0.558747;-1.053883;-4.021247;,
        0.324291;-1.056781;-4.021246;,
        0.356410;-0.473356;-3.437821;,
        -2.479841;-0.470458;-3.437823;,
        -2.411681;0.325798;-3.224271;,
        -2.277504;-0.473355;-3.437822;,
        -0.960547;-0.367613;-2.288046;,
        -2.169566;0.326459;-2.601454;,
        -0.960547;0.325421;-2.232768;,
        -0.960546;-2.453466;-6.457136;,
        -2.246299;-1.587546;-6.465478;,
        -2.201299;-1.401899;-3.648516;,
        -0.960546;-2.453466;-6.457136;,
        -0.960546;-2.468389;-8.995842;,
        -1.523954;-2.388477;-9.002932;,
        0.558747;-1.053883;-5.615192;,
        0.341572;-1.056781;-5.615192;,
        0.318768;-1.270330;-4.818219;,
        -2.301801;0.325065;-9.059749;,
        -1.011609;-0.800115;-8.275116;,
        0.380709;0.325065;-9.059749;,
        -1.902772;-1.946685;-9.011476;,
        -0.960546;-2.453466;-6.457136;,
        -1.523954;-2.388477;-9.002932;,
        -1.705881;-0.896708;-2.700061;,
        -2.169566;0.326459;-2.601454;,
        -0.960547;-0.367613;-2.288046;,
        0.558747;-0.470458;-6.198618;,
        0.341572;-1.056781;-5.615192;,
        0.558747;-1.053883;-5.615192;,
        -2.301801;0.325065;-9.059749;,
        -2.294623;0.324577;-6.412102;,
        -2.246299;-1.587546;-6.465478;,
        -0.960547;-2.194654;-3.792014;,
        -1.705881;-0.896708;-2.700061;,
        -0.960547;-1.219705;-2.679267;,
        -1.705881;-0.896708;-2.700061;,
        -0.960547;-2.194654;-3.792014;,
        -2.201299;-1.401899;-3.648516;,
        0.558747;-0.470458;-6.198618;,
        0.355642;-0.473356;-6.198617;,
        0.341572;-1.056781;-5.615192;,
        -2.479841;-0.470457;-6.198619;,
        -2.479841;-1.053883;-5.615193;,
        -2.262665;-1.056781;-5.615193;,
        -1.011609;-0.800115;-8.275116;,
        -0.018320;-1.946685;-9.011475;,
        0.380709;0.325065;-9.059749;,
        -0.960547;-0.367613;-2.288046;,
        -0.960547;-1.219705;-2.679267;,
        -1.705881;-0.896708;-2.700061;,
        -2.479841;-0.470457;-6.198619;,
        -2.262665;-1.056781;-5.615193;,
        -2.276735;-0.473356;-6.198618;,
        -2.479841;-0.470458;-3.437823;,
        -2.494478;0.325798;-3.224273;,
        -2.411681;0.325798;-3.224271;,
        -0.364437;-2.623278;-0.684247;,
        -0.364437;-2.532517;0.703939;,
        -0.364437;-2.018211;0.794699;,
        -1.588877;-2.623278;-0.684248;,
        -1.588878;-2.532517;0.703939;,
        -1.588877;-3.198091;-0.566700;,
        -1.588877;-0.251000;-1.631854;,
        -1.588877;0.501016;0.085090;,
        -1.588877;-0.207867;-0.191957;,
        -0.364437;-2.623278;-0.684247;,
        -0.364437;-3.198091;-0.566700;,
        -0.364437;-2.532517;0.703939;,
        -1.588877;-0.251000;-1.631854;,
        -0.364436;-0.251000;-1.631853;,
        -0.364436;0.611743;-2.387816;,
        -0.364437;-2.623278;-0.684247;,
        -0.364436;-0.251000;-1.631853;,
        -1.588877;-0.251000;-1.631854;,
        -1.588877;-3.137584;-0.775008;,
        -1.588877;-2.623278;-0.684248;,
        -1.588877;-3.198091;-0.566700;,
        -1.588877;-2.623278;-0.684248;,
        -1.588877;-0.207867;-0.191957;,
        -1.588878;-2.018211;0.794699;,
        -1.588878;-2.018211;0.794699;,
        -0.364437;-0.207867;-0.191957;,
        -0.364437;-2.018211;0.794699;,
        -1.588878;-2.532517;0.703939;,
        -1.588878;-2.018211;0.794699;,
        -0.364437;-2.532517;0.703939;,
        -1.588877;-2.623278;-0.684248;,
        -1.588877;-0.251000;-1.631854;,
        -1.588877;-0.207867;-0.191957;,
        -1.588877;-0.251000;-1.631854;,
        -1.588877;0.611743;-2.387815;,
        -1.588877;0.501016;0.085090;,
        -1.588877;-3.137584;-0.775008;,
        -0.364437;-3.198091;-0.566700;,
        -0.364437;-3.137584;-0.775008;,
        -0.364437;-3.137584;-0.775008;,
        -0.364437;-3.198091;-0.566700;,
        -0.364437;-2.623278;-0.684247;,
        -1.588877;-3.198091;-0.566700;,
        -0.364437;-3.198091;-0.566700;,
        -1.588877;-3.137584;-0.775008;,
        -0.364436;0.611743;-2.387816;,
        -1.588877;0.501016;0.085090;,
        -1.588877;0.611743;-2.387815;,
        -1.588877;-0.251000;-1.631854;,
        -0.364436;0.611743;-2.387816;,
        -1.588877;0.611743;-2.387815;,
        -0.364437;-3.137584;-0.775008;,
        -0.364437;-2.623278;-0.684247;,
        -1.588877;-3.137584;-0.775008;,
        -1.588877;-2.623278;-0.684248;,
        -0.364437;-2.623278;-0.684247;,
        -1.588877;-0.251000;-1.631854;,
        -1.588877;-3.137584;-0.775008;,
        -0.364437;-2.623278;-0.684247;,
        -1.588877;-2.623278;-0.684248;,
        -0.364436;0.611743;-2.387816;,
        -0.364436;0.501016;0.085090;,
        -1.588877;0.501016;0.085090;,
        -1.588877;0.501016;0.085090;,
        -0.364436;0.501016;0.085090;,
        -1.588877;-0.207867;-0.191957;,
        -1.588877;-0.207867;-0.191957;,
        -0.364437;-0.207867;-0.191957;,
        -1.588878;-2.018211;0.794699;,
        -0.364436;0.501016;0.085090;,
        -0.364437;-0.207867;-0.191957;,
        -1.588877;-0.207867;-0.191957;,
        -1.588877;-2.623278;-0.684248;,
        -1.588878;-2.018211;0.794699;,
        -1.588878;-2.532517;0.703939;,
        -0.364437;-2.018211;0.794699;,
        -0.364437;-2.532517;0.703939;,
        -1.588878;-2.018211;0.794699;,
        -0.364437;-2.532517;0.703939;,
        -0.364437;-3.198091;-0.566700;,
        -1.588877;-3.198091;-0.566700;,
        -0.364437;-2.532517;0.703939;,
        -1.588877;-3.198091;-0.566700;,
        -1.588878;-2.532517;0.703939;,
        -0.364436;-0.251000;-1.631853;,
        -0.364436;0.501016;0.085090;,
        -0.364436;0.611743;-2.387816;,
        -0.364436;-0.251000;-1.631853;,
        -0.364437;-0.207867;-0.191957;,
        -0.364436;0.501016;0.085090;,
        -0.364437;-2.623278;-0.684247;,
        -0.364437;-0.207867;-0.191957;,
        -0.364436;-0.251000;-1.631853;,
        -0.364437;-2.623278;-0.684247;,
        -0.364437;-2.018211;0.794699;,
        -0.364437;-0.207867;-0.191957;,
        -0.960545;0.632827;-14.100127;,
        -0.818975;0.632827;-14.100127;,
        -0.960545;0.915967;-14.100127;;
        255;
        3;0,2,1;,
        3;3,5,4;,
        3;6,8,7;,
        3;9,11,10;,
        3;12,14,13;,
        3;15,17,16;,
        3;18,20,19;,
        3;21,22,15;,
        3;23,2,6;,
        3;24,26,25;,
        3;8,28,27;,
        3;29,17,30;,
        3;31,33,32;,
        3;31,35,34;,
        3;36,38,37;,
        3;31,40,39;,
        3;41,42,35;,
        3;43,45,44;,
        3;46,39,6;,
        3;47,28,48;,
        3;34,50,49;,
        3;46,51,39;,
        3;52,54,53;,
        3;55,57,56;,
        3;58,6,7;,
        3;59,61,60;,
        3;8,62,2;,
        3;63,55,64;,
        3;65,67,66;,
        3;68,65,31;,
        3;69,71,70;,
        3;16,73,72;,
        3;74,76,75;,
        3;77,79,78;,
        3;80,82,81;,
        3;83,17,84;,
        3;85,87,86;,
        3;88,90,89;,
        3;91,93,92;,
        3;88,94,90;,
        3;95,96,76;,
        3;97,99,98;,
        3;81,101,100;,
        3;102,104,103;,
        3;105,107,106;,
        3;108,75,100;,
        3;109,111,110;,
        3;112,114,113;,
        3;115,108,46;,
        3;116,118,117;,
        3;81,82,101;,
        3;119,51,120;,
        3;121,123,122;,
        3;124,125,55;,
        3;126,128,127;,
        3;55,130,129;,
        3;131,75,76;,
        3;132,134,133;,
        3;100,136,135;,
        3;137,135,138;,
        3;139,141,140;,
        3;142,144,143;,
        3;145,147,146;,
        3;148,150,149;,
        3;151,153,152;,
        3;154,156,155;,
        3;157,159,158;,
        3;160,162,161;,
        3;163,165,164;,
        3;163,167,166;,
        3;168,170,169;,
        3;167,172,171;,
        3;173,174,171;,
        3;175,177,176;,
        3;178,180,179;,
        3;181,179,182;,
        3;183,185,184;,
        3;178,187,186;,
        3;188,190,189;,
        3;191,193,192;,
        3;178,186,194;,
        3;178,194,195;,
        3;196,198,197;,
        3;178,195,199;,
        3;178,199,200;,
        3;188,201,190;,
        3;183,202,193;,
        3;203,197,204;,
        3;205,207,206;,
        3;188,209,208;,
        3;206,211,210;,
        3;212,211,201;,
        3;196,213,205;,
        3;214,216,215;,
        3;210,201,188;,
        3;217,219,218;,
        3;220,222,221;,
        3;223,225,224;,
        3;226,228,227;,
        3;220,221,229;,
        3;230,232,231;,
        3;233,235,234;,
        3;236,238,237;,
        3;239,241,240;,
        3;242,244,243;,
        3;245,247,246;,
        3;248,250,249;,
        3;251,253,252;,
        3;218,231,254;,
        3;255,257,256;,
        3;258,260,259;,
        3;261,263,262;,
        3;264,266,265;,
        3;267,269,268;,
        3;270,272,271;,
        3;273,275,274;,
        3;276,278,277;,
        3;279,277,280;,
        3;281,282,277;,
        3;283,285,284;,
        3;286,287,262;,
        3;288,290,289;,
        3;291,293,292;,
        3;294,296,295;,
        3;297,299,298;,
        3;300,302,301;,
        3;303,301,304;,
        3;305,307,306;,
        3;308,310,309;,
        3;311,313,312;,
        3;314,316,315;,
        3;317,319,318;,
        3;320,322,321;,
        3;323,325,324;,
        3;326,328,327;,
        3;303,327,329;,
        3;330,332,331;,
        3;333,335,334;,
        3;336,338,337;,
        3;339,341,340;,
        3;342,344,343;,
        3;345,347,346;,
        3;348,350,349;,
        3;351,353,352;,
        3;354,356,355;,
        3;357,358,356;,
        3;333,360,359;,
        3;361,363,362;,
        3;339,365,364;,
        3;366,368,367;,
        3;369,371,370;,
        3;372,374,373;,
        3;375,377,376;,
        3;378,380,379;,
        3;381,382,356;,
        3;383,385,384;,
        3;386,388,387;,
        3;389,391,390;,
        3;392,394,393;,
        3;395,397,396;,
        3;398,400,399;,
        3;401,403,402;,
        3;404,406,405;,
        3;407,409,408;,
        3;410,412,411;,
        3;413,415,414;,
        3;416,418,417;,
        3;419,421,420;,
        3;422,424,423;,
        3;425,427,426;,
        3;428,430,429;,
        3;431,433,432;,
        3;434,436,435;,
        3;437,439,438;,
        3;440,442,441;,
        3;443,445,444;,
        3;446,448,447;,
        3;449,451,450;,
        3;452,454,453;,
        3;455,457,456;,
        3;458,460,459;,
        3;461,463,462;,
        3;464,466,465;,
        3;467,469,468;,
        3;470,472,471;,
        3;473,475,474;,
        3;476,478,477;,
        3;479,481,480;,
        3;482,484,483;,
        3;485,487,486;,
        3;488,490,489;,
        3;491,493,492;,
        3;494,496,495;,
        3;497,499,498;,
        3;500,502,501;,
        3;503,505,504;,
        3;506,508,507;,
        3;509,511,510;,
        3;512,514,513;,
        3;515,517,516;,
        3;518,520,519;,
        3;521,523,522;,
        3;524,526,525;,
        3;527,529,528;,
        3;530,532,531;,
        3;533,535,534;,
        3;536,538,537;,
        3;539,541,540;,
        3;542,544,543;,
        3;545,547,546;,
        3;548,550,549;,
        3;551,553,552;,
        3;554,556,555;,
        3;557,559,558;,
        3;560,562,561;,
        3;563,565,564;,
        3;566,568,567;,
        3;569,571,570;,
        3;572,574,573;,
        3;575,577,576;,
        3;578,580,579;,
        3;581,583,582;,
        3;584,586,585;,
        3;587,589,588;,
        3;590,592,591;,
        3;593,595,594;,
        3;596,598,597;,
        3;599,601,600;,
        3;602,604,603;,
        3;605,607,606;,
        3;608,610,609;,
        3;611,613,612;,
        3;614,616,615;,
        3;617,619,618;,
        3;620,622,621;,
        3;623,625,624;,
        3;626,628,627;,
        3;629,631,630;,
        3;632,634,633;,
        3;635,637,636;,
        3;638,640,639;,
        3;641,643,642;,
        3;644,646,645;,
        3;647,649,648;,
        3;650,652,651;,
        3;653,655,654;,
        3;656,658,657;,
        3;659,661,660;,
        3;662,664,663;,
        3;665,667,666;,
        3;668,670,669;,
        3;671,673,672;,
        3;674,676,675;,
        3;677,679,678;,
        3;680,682,681;;

        MeshNormals
        {
            250;
            -0.977883;0.050907;0.202863;,
            -0.694469;0.295844;-0.655888;,
            -0.848510;0.507413;0.150210;,
            -0.984344;0.152481;-0.088408;,
            -0.996183;0.084481;0.021960;,
            -0.335696;0.686025;-0.645507;,
            -0.422261;0.860629;-0.284627;,
            -0.908468;0.365911;-0.201976;,
            -0.661648;0.748631;0.042121;,
            -0.883050;0.450810;-0.130357;,
            -0.454640;0.458815;0.763408;,
            -0.007354;0.986263;-0.165020;,
            -0.996872;0.076670;0.019206;,
            -0.998004;0.061035;0.016200;,
            -0.879982;0.457021;-0.129475;,
            -0.589118;0.807969;0.011191;,
            -0.999533;0.030422;-0.002943;,
            -0.976099;0.092533;0.196641;,
            -0.329806;0.943863;0.018714;,
            -0.974533;0.033974;0.221657;,
            -0.995471;0.093503;0.017189;,
            -0.592309;0.804002;0.052445;,
            -0.124010;0.990459;0.060108;,
            0.319866;0.894790;0.311506;,
            -0.125938;0.968321;0.215625;,
            -0.381647;0.740480;0.553204;,
            -0.640530;0.720444;0.265861;,
            -0.347933;0.543193;0.764123;,
            -0.999529;0.028265;-0.011951;,
            -0.999583;0.028690;0.003228;,
            0.977884;0.050897;0.202861;,
            0.694471;0.295836;-0.655890;,
            0.848510;0.507413;0.150210;,
            0.984344;0.152479;-0.088410;,
            0.996184;0.084471;0.021951;,
            0.335695;0.686023;-0.645508;,
            0.422261;0.860629;-0.284627;,
            0.908472;0.365901;-0.201979;,
            0.661648;0.748631;0.042121;,
            0.883054;0.450802;-0.130358;,
            0.454642;0.458812;0.763409;,
            0.007354;0.986263;-0.165020;,
            0.996875;0.076628;0.019204;,
            0.998005;0.061023;0.016204;,
            0.879982;0.457021;-0.129475;,
            0.589118;0.807969;0.011191;,
            0.999533;0.030415;-0.002936;,
            0.976100;0.092527;0.196639;,
            0.329806;0.943863;0.018714;,
            0.974533;0.033965;0.221656;,
            0.995472;0.093486;0.017184;,
            0.592309;0.804002;0.052445;,
            0.124010;0.990459;0.060108;,
            -0.319866;0.894790;0.311506;,
            0.125938;0.968321;0.215625;,
            0.381647;0.740480;0.553204;,
            0.640530;0.720444;0.265861;,
            0.347933;0.543192;0.764124;,
            0.999529;0.028257;-0.011945;,
            0.999583;0.028682;0.003230;,
            -0.007018;-0.999975;-0.000165;,
            -0.000004;-1.000000;0.000309;,
            0.000000;-0.800000;-0.600000;,
            0.006008;-0.999982;0.000303;,
            0.000004;-1.000000;-0.000139;,
            0.000000;-1.000000;-0.000201;,
            0.000000;-1.000000;-0.000201;,
            -0.000000;-0.923419;0.383794;,
            0.000000;-0.751132;-0.660152;,
            0.000000;-0.984748;-0.173986;,
            0.000000;-0.984748;-0.173986;,
            0.000000;-0.945799;-0.324753;,
            0.000000;-0.800000;-0.600000;,
            -0.000001;0.000000;-1.000000;,
            -0.000000;0.000001;-1.000000;,
            0.668631;-0.743594;0.000000;,
            0.000000;0.000001;-1.000000;,
            0.991792;0.127864;0.000000;,
            0.007384;-0.999973;-0.000000;,
            0.000001;0.000000;-1.000000;,
            0.000001;-0.000001;-1.000000;,
            -0.657578;-0.753387;-0.000000;,
            0.000000;-0.000001;-1.000000;,
            -0.000001;-0.000001;-1.000000;,
            0.458173;0.888863;0.000000;,
            0.668631;-0.743594;0.000000;,
            -0.993572;0.113203;-0.000000;,
            -0.993572;0.113203;-0.000000;,
            0.991792;0.127864;0.000000;,
            -0.471248;0.882001;-0.000000;,
            -0.471249;0.882001;-0.000000;,
            -0.657578;-0.753387;-0.000000;,
            0.007384;-0.999973;-0.000000;,
            0.458173;0.888863;0.000000;,
            0.500000;0.866026;0.000000;,
            0.000003;-0.000001;-1.000000;,
            -0.500000;-0.866025;-0.000000;,
            -0.500000;-0.866025;-0.000000;,
            0.000000;0.000000;-1.000000;,
            0.500000;0.866026;0.000000;,
            0.000000;0.000003;-1.000000;,
            0.500000;-0.866025;0.000000;,
            1.000000;-0.000000;0.000000;,
            0.500000;-0.866025;0.000000;,
            -1.000000;-0.000000;-0.000000;,
            -1.000000;0.000000;-0.000000;,
            -0.500000;0.866025;-0.000000;,
            -0.500000;0.866025;-0.000000;,
            -0.953359;0.300813;-0.024875;,
            -0.989900;-0.141289;0.011683;,
            -0.914154;-0.386992;-0.120661;,
            -0.938640;-0.288309;-0.189298;,
            0.953359;0.300813;-0.024874;,
            0.995812;-0.091398;-0.002293;,
            -0.995812;-0.091398;-0.002293;,
            0.000003;-0.535395;0.844602;,
            0.989900;-0.141289;0.011683;,
            0.938640;-0.288309;-0.189297;,
            -0.000001;0.999645;-0.026634;,
            0.914155;-0.386992;-0.120661;,
            -0.000001;0.455503;-0.890234;,
            0.000001;-0.983339;0.181781;,
            0.946854;-0.060806;0.315865;,
            0.950276;-0.206749;0.232874;,
            0.953784;-0.281022;0.106412;,
            0.955919;-0.281651;-0.083021;,
            0.951295;-0.186084;-0.245787;,
            0.945098;-0.047920;-0.323255;,
            0.943932;0.069214;-0.322803;,
            0.945450;0.230353;-0.230353;,
            0.945450;0.314668;-0.084315;,
            0.945450;0.314668;0.084315;,
            0.945450;0.230353;0.230354;,
            0.945343;0.083153;0.315298;,
            -0.946856;-0.060813;0.315856;,
            -0.950278;-0.206745;0.232870;,
            -0.953786;-0.281016;0.106410;,
            -0.955920;-0.281645;-0.083020;,
            -0.951297;-0.186079;-0.245783;,
            -0.945099;-0.047913;-0.323252;,
            -0.943933;0.069221;-0.322800;,
            -0.945450;0.230353;-0.230353;,
            -0.945450;0.314668;-0.084316;,
            -0.945450;0.314668;0.084315;,
            -0.945450;0.230353;0.230353;,
            -0.945343;0.083160;0.315294;,
            -0.010129;-0.707071;0.707070;,
            0.290899;-0.076072;0.953725;,
            0.558305;-0.828594;0.041550;,
            0.140498;-0.990064;0.005820;,
            -0.913438;-0.198475;0.355301;,
            -0.011940;-0.965857;0.258801;,
            0.529853;-0.844119;0.081973;,
            -0.558306;-0.828594;0.041550;,
            -0.529853;-0.844118;0.081973;,
            -0.011664;-0.965880;0.258726;,
            0.325571;-0.711164;0.623096;,
            0.388493;-0.713568;0.583005;,
            0.011664;-0.965860;-0.258802;,
            -0.003691;-0.258986;-0.965874;,
            -0.994325;-0.104283;0.021051;,
            0.201925;-0.408657;0.890070;,
            -0.001602;-0.258489;-0.966013;,
            -0.008746;-0.707320;0.706839;,
            -0.419082;0.168067;-0.892258;,
            0.011939;-0.965857;0.258800;,
            0.355756;-0.208309;0.911068;,
            -0.998463;-0.053563;0.014217;,
            0.011666;-0.965880;0.258726;,
            0.752420;-0.331134;0.569398;,
            -0.752420;-0.331134;0.569398;,
            -0.999640;-0.026689;-0.002581;,
            0.067885;0.397427;-0.915119;,
            0.419078;0.168068;-0.892260;,
            0.913438;-0.198475;0.355301;,
            0.999641;-0.024993;-0.009659;,
            -0.011664;-0.965860;-0.258801;,
            0.569456;0.082645;-0.817857;,
            -0.012890;-0.965938;-0.258453;,
            0.978823;-0.174213;-0.107496;,
            0.999675;-0.025340;0.002706;,
            0.358952;0.290633;-0.886953;,
            0.003709;-0.258741;0.965940;,
            0.751979;-0.641886;0.150034;,
            -0.999641;-0.024994;-0.009659;,
            -0.067409;0.393950;-0.916657;,
            -0.978823;-0.174213;-0.107496;,
            0.000025;-0.259037;0.965867;,
            0.557760;-0.827574;0.063450;,
            0.003691;-0.258987;-0.965874;,
            0.001266;-0.258410;-0.966035;,
            0.010129;-0.707071;0.707070;,
            -0.995249;-0.094808;0.022147;,
            0.999640;-0.026689;-0.002581;,
            0.998463;-0.053563;0.014217;,
            0.994325;-0.104283;0.021051;,
            0.995249;-0.094809;0.022147;,
            0.995372;-0.089583;0.034786;,
            -0.995372;-0.089583;0.034785;,
            -0.344206;0.277796;-0.896857;,
            0.008745;-0.707321;0.706839;,
            -0.003709;-0.258742;0.965939;,
            -0.290900;-0.076072;0.953725;,
            -0.557760;-0.827573;0.063450;,
            -0.140500;-0.990064;0.005820;,
            0.012890;-0.965938;-0.258454;,
            0.000000;-0.571997;-0.820256;,
            -0.751978;-0.641887;0.150034;,
            -0.355757;-0.208309;0.911068;,
            0.009436;-0.707076;-0.707075;,
            -0.999675;-0.025340;0.002706;,
            -0.325572;-0.711164;0.623096;,
            -0.388494;-0.713567;0.583005;,
            0.010088;-0.707192;-0.706949;,
            -0.009436;-0.707075;-0.707075;,
            -0.535551;0.076196;-0.841059;,
            -0.201927;-0.408657;0.890070;,
            -0.010089;-0.707192;-0.706949;,
            -0.000023;-0.259038;0.965867;,
            1.000000;-0.000000;0.000000;,
            -1.000000;0.000000;-0.000000;,
            -1.000000;0.000000;-0.000000;,
            1.000000;-0.000000;0.000000;,
            0.000000;-0.659029;-0.752118;,
            0.000000;-0.370950;-0.928653;,
            -1.000000;0.000000;0.000000;,
            -1.000000;-0.000000;-0.000000;,
            -0.000000;0.478551;0.878060;,
            -0.000000;-0.173785;0.984784;,
            -1.000000;-0.000000;-0.000000;,
            -1.000000;-0.000000;-0.000000;,
            0.000000;-0.960308;-0.278940;,
            1.000000;-0.000000;0.000001;,
            0.000000;0.998999;0.044731;,
            -0.000001;-0.659028;-0.752118;,
            0.000000;0.173787;-0.984783;,
            0.000000;-0.370950;-0.928653;,
            0.000000;0.173787;-0.984783;,
            0.000000;0.998999;0.044731;,
            0.000000;-0.364010;0.931395;,
            -0.000000;0.478551;0.878060;,
            -0.000000;-0.364010;0.931395;,
            -1.000000;0.000000;-0.000000;,
            -0.000000;-0.173785;0.984784;,
            0.000000;-0.885831;0.464007;,
            -0.000000;-0.885831;0.464008;,
            1.000000;-0.000000;0.000000;,
            1.000000;-0.000000;0.000000;,
            1.000000;-0.000000;0.000000;,
            1.000000;-0.000000;0.000000;;
            255;
            3;0,0,0;,
            3;1,1,1;,
            3;2,2,2;,
            3;3,3,3;,
            3;4,4,4;,
            3;5,5,5;,
            3;6,6,6;,
            3;7,7,7;,
            3;8,8,8;,
            3;9,9,9;,
            3;10,10,10;,
            3;11,11,11;,
            3;12,12,12;,
            3;13,13,13;,
            3;14,14,14;,
            3;15,15,15;,
            3;16,16,16;,
            3;17,17,17;,
            3;18,18,18;,
            3;19,19,19;,
            3;20,20,20;,
            3;21,21,21;,
            3;22,22,22;,
            3;23,23,23;,
            3;24,24,24;,
            3;25,25,25;,
            3;26,26,26;,
            3;27,27,27;,
            3;28,28,28;,
            3;29,29,29;,
            3;30,30,30;,
            3;31,31,31;,
            3;32,32,32;,
            3;33,33,33;,
            3;34,34,34;,
            3;35,35,35;,
            3;36,36,36;,
            3;37,37,37;,
            3;38,38,38;,
            3;39,39,39;,
            3;40,40,40;,
            3;41,41,41;,
            3;42,42,42;,
            3;43,43,43;,
            3;44,44,44;,
            3;45,45,45;,
            3;46,46,46;,
            3;47,47,47;,
            3;48,48,48;,
            3;49,49,49;,
            3;50,50,50;,
            3;51,51,51;,
            3;52,52,52;,
            3;53,53,53;,
            3;54,54,54;,
            3;55,55,55;,
            3;56,56,56;,
            3;57,57,57;,
            3;58,58,58;,
            3;59,59,59;,
            3;60,60,60;,
            3;61,61,61;,
            3;62,62,62;,
            3;63,63,63;,
            3;64,64,64;,
            3;65,65,65;,
            3;66,66,66;,
            3;67,67,67;,
            3;68,68,68;,
            3;68,68,68;,
            3;69,69,69;,
            3;70,70,70;,
            3;71,71,71;,
            3;72,72,72;,
            3;73,73,73;,
            3;74,74,74;,
            3;75,75,75;,
            3;76,76,76;,
            3;77,77,77;,
            3;78,78,78;,
            3;79,79,79;,
            3;80,80,80;,
            3;81,81,81;,
            3;82,82,82;,
            3;83,83,83;,
            3;84,84,84;,
            3;85,85,85;,
            3;86,86,86;,
            3;87,87,87;,
            3;88,88,88;,
            3;89,89,89;,
            3;90,90,90;,
            3;91,91,91;,
            3;92,92,92;,
            3;93,93,93;,
            3;94,94,94;,
            3;95,95,95;,
            3;96,96,96;,
            3;97,97,97;,
            3;98,98,98;,
            3;99,99,99;,
            3;98,98,98;,
            3;100,100,100;,
            3;101,101,101;,
            3;102,102,102;,
            3;103,103,103;,
            3;104,104,104;,
            3;105,105,105;,
            3;102,102,102;,
            3;106,106,106;,
            3;107,107,107;,
            3;108,108,108;,
            3;109,109,109;,
            3;110,110,110;,
            3;111,111,111;,
            3;112,112,112;,
            3;113,113,113;,
            3;114,114,114;,
            3;115,115,115;,
            3;116,116,116;,
            3;117,117,117;,
            3;118,118,118;,
            3;119,119,119;,
            3;120,120,120;,
            3;121,121,121;,
            3;122,122,122;,
            3;123,123,123;,
            3;124,124,124;,
            3;125,125,125;,
            3;126,126,126;,
            3;127,127,127;,
            3;128,128,128;,
            3;129,129,129;,
            3;130,130,130;,
            3;131,131,131;,
            3;132,132,132;,
            3;133,133,133;,
            3;134,134,134;,
            3;135,135,135;,
            3;136,136,136;,
            3;137,137,137;,
            3;138,138,138;,
            3;139,139,139;,
            3;140,140,140;,
            3;141,141,141;,
            3;142,142,142;,
            3;143,143,143;,
            3;144,144,144;,
            3;145,145,145;,
            3;146,146,146;,
            3;147,147,147;,
            3;148,148,148;,
            3;149,149,149;,
            3;150,150,150;,
            3;151,151,151;,
            3;152,152,152;,
            3;153,153,153;,
            3;154,154,154;,
            3;155,155,155;,
            3;156,156,156;,
            3;157,157,157;,
            3;158,158,158;,
            3;159,159,159;,
            3;160,160,160;,
            3;161,161,161;,
            3;162,162,162;,
            3;163,163,163;,
            3;164,164,164;,
            3;165,165,165;,
            3;166,166,166;,
            3;167,167,167;,
            3;168,168,168;,
            3;169,169,169;,
            3;170,170,170;,
            3;171,171,171;,
            3;172,172,172;,
            3;173,173,173;,
            3;174,174,174;,
            3;175,175,175;,
            3;176,176,176;,
            3;177,177,177;,
            3;178,178,178;,
            3;179,179,179;,
            3;180,180,180;,
            3;181,181,181;,
            3;182,182,182;,
            3;183,183,183;,
            3;184,184,184;,
            3;185,185,185;,
            3;186,186,186;,
            3;187,187,187;,
            3;188,188,188;,
            3;189,189,189;,
            3;190,190,190;,
            3;191,191,191;,
            3;192,192,192;,
            3;193,193,193;,
            3;194,194,194;,
            3;195,195,195;,
            3;196,196,196;,
            3;197,197,197;,
            3;198,198,198;,
            3;199,199,199;,
            3;200,200,200;,
            3;201,201,201;,
            3;202,202,202;,
            3;203,203,203;,
            3;204,204,204;,
            3;205,205,205;,
            3;206,206,206;,
            3;207,207,207;,
            3;208,208,208;,
            3;209,209,209;,
            3;210,210,210;,
            3;211,211,211;,
            3;212,212,212;,
            3;213,213,213;,
            3;214,214,214;,
            3;215,215,215;,
            3;216,216,216;,
            3;217,217,217;,
            3;218,218,218;,
            3;219,219,219;,
            3;220,220,220;,
            3;221,221,221;,
            3;222,222,222;,
            3;223,223,223;,
            3;224,224,224;,
            3;225,225,225;,
            3;226,226,226;,
            3;227,227,227;,
            3;228,228,228;,
            3;229,229,229;,
            3;230,230,230;,
            3;231,231,231;,
            3;232,232,232;,
            3;231,231,231;,
            3;233,233,233;,
            3;234,234,234;,
            3;235,235,235;,
            3;236,236,236;,
            3;237,237,237;,
            3;238,238,238;,
            3;239,239,239;,
            3;240,240,240;,
            3;241,241,241;,
            3;242,242,242;,
            3;243,243,243;,
            3;244,244,244;,
            3;245,245,245;,
            3;246,246,246;,
            3;247,247,247;,
            3;248,248,248;,
            3;249,249,249;,
            3;98,98,98;;
        }

        MeshTextureCoords
        {
            683;
            0.159799;0.224499;,
            0.190923;0.424974;,
            0.161728;0.419492;,
            0.162911;0.945965;,
            0.105916;0.991044;,
            0.136078;0.919005;,
            0.128702;0.411965;,
            0.128767;0.286632;,
            0.159799;0.224499;,
            0.162162;0.619874;,
            0.210184;0.771187;,
            0.178663;0.843284;,
            0.161728;0.419492;,
            0.190923;0.424974;,
            0.174326;0.465898;,
            0.136078;0.919005;,
            0.105916;0.991044;,
            0.105916;0.913749;,
            0.124970;0.838985;,
            0.136078;0.919005;,
            0.105916;0.913749;,
            0.162911;0.945965;,
            0.178663;0.843284;,
            0.162162;0.619874;,
            0.178663;0.843284;,
            0.136078;0.919005;,
            0.162162;0.619874;,
            0.107101;-0.001452;,
            0.212124;0.106244;,
            0.105916;0.767462;,
            0.124970;0.838985;,
            0.162162;0.619874;,
            0.161728;0.419492;,
            0.168987;0.515849;,
            0.168987;0.515849;,
            0.174822;0.563991;,
            0.124970;0.838985;,
            0.162162;0.619874;,
            0.136078;0.919005;,
            0.124970;0.838985;,
            0.128702;0.411965;,
            0.162162;0.619874;,
            0.190908;0.602083;,
            0.159799;0.224499;,
            0.210171;0.408599;,
            0.190923;0.424974;,
            0.105916;0.619367;,
            0.210171;0.408599;,
            0.159799;0.224499;,
            0.161728;0.419492;,
            0.174326;0.465898;,
            0.105916;0.767462;,
            0.105916;0.619367;,
            0.105916;0.403541;,
            0.128702;0.411965;,
            0.105916;0.183189;,
            0.128767;0.286632;,
            0.105916;0.403541;,
            0.105916;0.403541;,
            0.128767;0.286632;,
            0.105916;0.183189;,
            0.159799;0.224499;,
            0.128702;0.411965;,
            0.107101;-0.001452;,
            0.159799;0.224499;,
            0.210143;0.617750;,
            0.162162;0.619874;,
            0.190908;0.602083;,
            0.210184;0.771187;,
            0.190923;0.424974;,
            0.159799;0.224499;,
            0.161728;0.419492;,
            0.162911;0.945965;,
            0.136078;0.919005;,
            0.128767;0.286632;,
            0.128702;0.411965;,
            0.159799;0.224499;,
            0.210184;0.771187;,
            0.162162;0.619874;,
            0.178663;0.843284;,
            0.190923;0.424974;,
            0.161728;0.419492;,
            0.174326;0.465898;,
            0.105916;0.991044;,
            0.136078;0.919005;,
            0.136078;0.919005;,
            0.124970;0.838985;,
            0.105916;0.913749;,
            0.136078;0.919005;,
            0.162911;0.945965;,
            0.178663;0.843284;,
            0.128702;0.411965;,
            0.162162;0.619874;,
            0.161728;0.419492;,
            0.162162;0.619874;,
            0.107101;-0.001452;,
            0.212124;0.106244;,
            0.124970;0.838985;,
            0.105916;0.767462;,
            0.105916;0.913749;,
            0.162162;0.619874;,
            0.168987;0.515849;,
            0.168987;0.515849;,
            0.162162;0.619874;,
            0.174822;0.563991;,
            0.162162;0.619874;,
            0.124970;0.838985;,
            0.136078;0.919005;,
            0.124970;0.838985;,
            0.174822;0.563991;,
            0.162162;0.619874;,
            0.190908;0.602083;,
            0.210171;0.408599;,
            0.159799;0.224499;,
            0.190923;0.424974;,
            0.128702;0.411965;,
            0.159799;0.224499;,
            0.210171;0.408599;,
            0.212124;0.106244;,
            0.124970;0.838985;,
            0.105916;0.619367;,
            0.105916;0.403541;,
            0.105916;0.619367;,
            0.128702;0.411965;,
            0.128767;0.286632;,
            0.105916;0.403541;,
            0.128767;0.286632;,
            0.105916;0.403541;,
            0.128702;0.411965;,
            0.128767;0.286632;,
            0.159799;0.224499;,
            0.161728;0.419492;,
            0.159799;0.224499;,
            0.107101;-0.001452;,
            0.105916;0.183189;,
            0.210143;0.617750;,
            0.190908;0.602083;,
            0.162162;0.619874;,
            0.210184;0.771187;,
            0.340968;0.514910;,
            0.406899;0.514633;,
            0.340968;0.507706;,
            0.406899;0.514633;,
            0.406899;0.507390;,
            0.340968;0.507706;,
            0.420285;0.622227;,
            0.406899;0.507390;,
            0.406899;0.514633;,
            0.406899;0.625353;,
            0.340966;0.617832;,
            0.340966;0.625037;,
            0.406899;0.625353;,
            0.406899;0.618109;,
            0.340966;0.617832;,
            0.356850;0.413800;,
            0.406056;0.413800;,
            0.402169;0.374054;,
            0.360736;0.374054;,
            0.393071;0.331925;,
            0.369834;0.331925;,
            0.369834;0.331925;,
            0.393071;0.331925;,
            0.381453;0.317629;,
            0.420285;0.510516;,
            0.420285;0.622227;,
            0.442548;0.612875;,
            0.442548;0.612875;,
            0.442548;0.519868;,
            0.442548;0.519868;,
            0.442548;0.612875;,
            0.477312;0.597070;,
            0.477312;0.597070;,
            0.477312;0.535672;,
            0.477312;0.535672;,
            0.495482;0.566371;,
            0.406899;0.514633;,
            0.406899;0.618109;,
            0.420285;0.622227;,
            0.450439;0.380307;,
            0.487977;0.341191;,
            0.487977;0.419423;,
            0.450439;0.380307;,
            0.455549;0.296750;,
            0.434830;0.645341;,
            0.404145;0.645341;,
            0.404145;0.991864;,
            0.418707;0.324492;,
            0.455549;0.296750;,
            0.464840;0.645341;,
            0.434830;0.991864;,
            0.464840;0.991864;,
            0.404145;0.645341;,
            0.389550;0.991864;,
            0.404145;0.991864;,
            0.409277;0.400450;,
            0.435406;0.459007;,
            0.404145;0.645341;,
            0.434218;0.991864;,
            0.404145;0.991864;,
            0.455549;0.463863;,
            0.487977;0.419423;,
            0.495517;0.991864;,
            0.434830;0.991864;,
            0.434218;0.645341;,
            0.465066;0.991864;,
            0.434218;0.645341;,
            0.465066;0.645341;,
            0.465066;0.991864;,
            0.434830;0.645341;,
            0.434830;0.991864;,
            0.495227;0.645341;,
            0.465066;0.991864;,
            0.495227;0.645341;,
            0.434218;0.991864;,
            0.404145;0.645341;,
            0.389550;0.645341;,
            0.389550;0.991864;,
            0.404954;0.610112;,
            0.404996;0.581561;,
            0.287728;0.581561;,
            0.373740;0.937945;,
            0.349962;0.855574;,
            0.373740;0.883031;,
            0.404927;0.524424;,
            0.287728;0.553000;,
            0.287659;0.524424;,
            0.404927;0.524424;,
            0.404996;0.553000;,
            0.287728;0.553000;,
            0.326183;0.883031;,
            0.404954;0.610112;,
            0.287728;0.581561;,
            0.287796;0.610137;,
            0.373740;0.937945;,
            0.326183;0.937945;,
            0.326183;0.883031;,
            0.373740;0.937945;,
            0.349962;0.965402;,
            0.326183;0.937945;,
            0.404927;0.524424;,
            0.287659;0.524424;,
            0.287728;0.553000;,
            0.404996;0.581561;,
            0.404996;0.553000;,
            0.287728;0.553000;,
            0.404996;0.553000;,
            0.404927;0.524424;,
            0.287728;0.553000;,
            0.404996;0.553000;,
            0.404996;0.581561;,
            0.287728;0.553000;,
            0.404996;0.581561;,
            0.287728;0.581561;,
            0.287728;0.553000;,
            0.287728;0.553000;,
            0.404996;0.581561;,
            0.287796;0.610137;,
            0.287728;0.581561;,
            0.404996;0.581561;,
            0.404954;0.610112;,
            0.287796;0.610137;,
            0.442100;0.246010;,
            0.481103;0.222150;,
            0.224893;0.219878;,
            0.442100;0.246010;,
            0.224893;0.219878;,
            0.389647;0.302820;,
            0.389647;0.302820;,
            0.447104;0.264189;,
            0.442100;0.246010;,
            0.442100;0.246010;,
            0.459716;0.251691;,
            0.481103;0.222150;,
            0.442100;0.246010;,
            0.224893;0.219878;,
            0.481103;0.222150;,
            0.389647;0.302820;,
            0.257172;0.315318;,
            0.224893;0.219878;,
            0.389647;0.302820;,
            0.224893;0.219878;,
            0.224893;0.219878;,
            0.224893;0.219878;,
            0.442100;0.246010;,
            0.389647;0.302820;,
            0.224893;0.219878;,
            0.442100;0.246010;,
            0.459716;0.251691;,
            0.481103;0.222150;,
            0.224893;0.219878;,
            0.224893;0.219878;,
            0.442100;0.246010;,
            0.447104;0.264189;,
            0.389647;0.302820;,
            0.447104;0.264189;,
            0.442100;0.246010;,
            0.442100;0.246010;,
            0.442100;0.246010;,
            0.459716;0.251691;,
            0.442100;0.246010;,
            0.221935;0.514104;,
            0.196381;0.425501;,
            0.221935;0.411794;,
            0.221935;0.514104;,
            0.177673;0.462949;,
            0.221935;0.514104;,
            0.170826;0.514104;,
            0.177673;0.462949;,
            0.221935;0.514104;,
            0.177673;0.565260;,
            0.170826;0.514104;,
            0.221935;0.514104;,
            0.196380;0.602708;,
            0.177673;0.565260;,
            0.221935;0.514104;,
            0.221958;0.616415;,
            0.196380;0.602708;,
            0.221935;0.514104;,
            0.247489;0.602708;,
            0.221958;0.616415;,
            0.221935;0.514104;,
            0.266197;0.565260;,
            0.247489;0.602708;,
            0.221935;0.514104;,
            0.273044;0.514104;,
            0.266197;0.565260;,
            0.221935;0.514104;,
            0.266197;0.462949;,
            0.273044;0.514104;,
            0.247489;0.425501;,
            0.221935;0.514104;,
            0.221935;0.411794;,
            0.247489;0.425501;,
            0.221935;0.514104;,
            0.221935;0.411794;,
            0.196381;0.425501;,
            0.221935;0.514104;,
            0.196381;0.425501;,
            0.177673;0.462949;,
            0.221935;0.514104;,
            0.177673;0.462949;,
            0.170826;0.514104;,
            0.221935;0.514104;,
            0.170826;0.514104;,
            0.177673;0.565260;,
            0.221935;0.514104;,
            0.177673;0.565260;,
            0.196380;0.602708;,
            0.221935;0.514104;,
            0.196380;0.602708;,
            0.221958;0.616415;,
            0.221935;0.514104;,
            0.221958;0.616415;,
            0.247489;0.602708;,
            0.221935;0.514104;,
            0.247489;0.602708;,
            0.266197;0.565260;,
            0.221935;0.514104;,
            0.273044;0.514104;,
            0.273044;0.514104;,
            0.266197;0.462949;,
            0.221935;0.514104;,
            0.266197;0.462949;,
            0.247489;0.425501;,
            0.247489;0.425501;,
            0.221935;0.411794;,
            0.266197;0.565260;,
            0.247489;0.602708;,
            0.251615;0.615708;,
            0.458315;0.012741;,
            0.475391;0.013177;,
            0.447312;0.188054;,
            0.222271;0.078208;,
            0.311948;0.015159;,
            0.311655;0.110108;,
            0.311948;0.015159;,
            0.222571;0.043837;,
            0.222820;0.015176;,
            0.425446;0.187748;,
            0.447312;0.188054;,
            0.410552;0.113251;,
            0.273044;0.514104;,
            0.273557;0.574622;,
            0.405514;0.014835;,
            0.410552;0.113251;,
            0.311948;0.015159;,
            0.222271;0.078208;,
            0.311655;0.110108;,
            0.311948;0.015159;,
            0.311948;0.015159;,
            0.410552;0.113251;,
            0.405514;0.014835;,
            0.273044;0.514104;,
            0.273557;0.574622;,
            0.281835;0.513886;,
            0.405514;0.014835;,
            0.444580;0.012605;,
            0.443850;0.104758;,
            0.443850;0.104758;,
            0.410552;0.113251;,
            0.405514;0.014835;,
            0.266197;0.462949;,
            0.281835;0.513886;,
            0.273044;0.514104;,
            0.221970;0.411800;,
            0.247489;0.425501;,
            0.252510;0.410237;,
            0.369486;0.118347;,
            0.397466;0.132670;,
            0.410552;0.113251;,
            0.458315;0.012741;,
            0.443850;0.104758;,
            0.444580;0.012605;,
            0.221970;0.411800;,
            0.252510;0.410237;,
            0.222528;0.396875;,
            0.266197;0.565260;,
            0.251615;0.615708;,
            0.273557;0.574622;,
            0.410552;0.113251;,
            0.417949;0.162358;,
            0.425446;0.187748;,
            0.273044;0.514104;,
            0.273557;0.574622;,
            0.266197;0.565260;,
            0.443850;0.104758;,
            0.458315;0.012741;,
            0.447312;0.188054;,
            0.369486;0.118347;,
            0.311655;0.110108;,
            0.341507;0.133069;,
            0.273044;0.514104;,
            0.281835;0.513886;,
            0.273557;0.574622;,
            0.443850;0.104758;,
            0.447312;0.188054;,
            0.410552;0.113251;,
            0.443850;0.104758;,
            0.410552;0.113251;,
            0.447312;0.188054;,
            0.321024;0.155743;,
            0.341507;0.133069;,
            0.311655;0.110108;,
            0.332030;0.344051;,
            0.320020;0.340779;,
            0.321109;0.409078;,
            0.410552;0.113251;,
            0.425446;0.187748;,
            0.417949;0.162358;,
            0.425446;0.187748;,
            0.410552;0.113251;,
            0.447312;0.188054;,
            0.321024;0.155743;,
            0.313530;0.187843;,
            0.311655;0.110108;,
            0.266197;0.462949;,
            0.273044;0.514104;,
            0.281835;0.513886;,
            0.348611;0.455143;,
            0.340105;0.362137;,
            0.321109;0.409078;,
            0.266197;0.462949;,
            0.281835;0.513886;,
            0.274092;0.453684;,
            0.311655;0.110108;,
            0.220576;0.187845;,
            0.222271;0.078208;,
            0.220576;0.187845;,
            0.311655;0.110108;,
            0.313530;0.187843;,
            0.340105;0.362137;,
            0.332030;0.344051;,
            0.321109;0.409078;,
            0.247489;0.602708;,
            0.251615;0.615708;,
            0.222032;0.632124;,
            0.222271;0.078208;,
            0.222571;0.043837;,
            0.311948;0.015159;,
            0.321024;0.155743;,
            0.311655;0.110108;,
            0.313530;0.187843;,
            0.320020;0.340779;,
            0.308010;0.344051;,
            0.321109;0.409078;,
            0.311655;0.110108;,
            0.222271;0.078208;,
            0.220576;0.187845;,
            0.247489;0.602708;,
            0.222032;0.632124;,
            0.221958;0.616415;,
            0.311655;0.110108;,
            0.311948;0.015159;,
            0.410552;0.113251;,
            0.221970;0.411800;,
            0.252510;0.410237;,
            0.247489;0.425501;,
            0.221970;0.411800;,
            0.222528;0.396875;,
            0.252510;0.410237;,
            0.266197;0.565260;,
            0.251615;0.615708;,
            0.247489;0.602708;,
            0.410552;0.113251;,
            0.311655;0.110108;,
            0.369486;0.118347;,
            0.321024;0.155743;,
            0.311655;0.110108;,
            0.341507;0.133069;,
            0.369486;0.118347;,
            0.341507;0.133069;,
            0.311655;0.110108;,
            0.369486;0.118347;,
            0.410552;0.113251;,
            0.397466;0.132670;,
            0.410552;0.113251;,
            0.369486;0.118347;,
            0.311655;0.110108;,
            0.417949;0.162358;,
            0.397466;0.132670;,
            0.410552;0.113251;,
            0.417949;0.162358;,
            0.410552;0.113251;,
            0.397466;0.132670;,
            0.308010;0.344051;,
            0.299935;0.362137;,
            0.321109;0.409078;,
            0.266197;0.565260;,
            0.273557;0.574622;,
            0.251615;0.615708;,
            0.247489;0.602708;,
            0.222032;0.632124;,
            0.251615;0.615708;,
            0.458315;0.012741;,
            0.447312;0.188054;,
            0.475391;0.013177;,
            0.311948;0.015159;,
            0.311655;0.110108;,
            0.410552;0.113251;,
            0.311948;0.015159;,
            0.222820;0.015176;,
            0.222571;0.043837;,
            0.266197;0.462949;,
            0.274092;0.453684;,
            0.281835;0.513886;,
            0.348611;0.455143;,
            0.321109;0.409078;,
            0.291429;0.455143;,
            0.222271;0.078208;,
            0.311948;0.015159;,
            0.222571;0.043837;,
            0.443850;0.104758;,
            0.447312;0.188054;,
            0.458315;0.012741;,
            0.247489;0.425501;,
            0.274092;0.453684;,
            0.266197;0.462949;,
            0.220576;0.187845;,
            0.313530;0.187843;,
            0.311655;0.110108;,
            0.405514;0.014835;,
            0.443850;0.104758;,
            0.444580;0.012605;,
            0.443850;0.104758;,
            0.405514;0.014835;,
            0.410552;0.113251;,
            0.247489;0.425501;,
            0.252510;0.410237;,
            0.274092;0.453684;,
            0.247489;0.425501;,
            0.266197;0.462949;,
            0.274092;0.453684;,
            0.321109;0.409078;,
            0.299935;0.362137;,
            0.291429;0.455143;,
            0.458315;0.012741;,
            0.444580;0.012605;,
            0.443850;0.104758;,
            0.247489;0.425501;,
            0.274092;0.453684;,
            0.252510;0.410237;,
            0.247489;0.602708;,
            0.221958;0.616415;,
            0.222032;0.632124;,
            0.285794;0.883146;,
            0.235278;0.877651;,
            0.231975;0.846514;,
            0.285794;0.883146;,
            0.235278;0.877651;,
            0.281516;0.917947;,
            0.320278;0.731191;,
            0.256725;0.683411;,
            0.267879;0.728579;,
            0.285794;0.883146;,
            0.281516;0.917947;,
            0.235278;0.877651;,
            0.298636;0.731191;,
            0.320278;0.731191;,
            0.353014;0.676238;,
            0.285794;0.883146;,
            0.320278;0.731191;,
            0.298636;0.731191;,
            0.289097;0.914284;,
            0.285794;0.883146;,
            0.281516;0.917947;,
            0.285794;0.883146;,
            0.267879;0.728579;,
            0.231975;0.846514;,
            0.259310;0.810355;,
            0.267879;0.728579;,
            0.231975;0.846514;,
            0.262613;0.841492;,
            0.259310;0.810355;,
            0.235278;0.877651;,
            0.285794;0.883146;,
            0.320278;0.731191;,
            0.267879;0.728579;,
            0.320278;0.731191;,
            0.353014;0.676238;,
            0.256725;0.683411;,
            0.263458;0.859941;,
            0.281516;0.917947;,
            0.289097;0.914284;,
            0.289097;0.914284;,
            0.281516;0.917947;,
            0.285794;0.883146;,
            0.281516;0.917947;,
            0.307155;0.972291;,
            0.289097;0.914284;,
            0.374656;0.676238;,
            0.256725;0.683411;,
            0.353014;0.676238;,
            0.320278;0.731191;,
            0.374656;0.676238;,
            0.353014;0.676238;,
            0.314736;0.968627;,
            0.311433;0.937490;,
            0.289097;0.914284;,
            0.285794;0.883146;,
            0.311433;0.937490;,
            0.320278;0.731191;,
            0.289097;0.914284;,
            0.311433;0.937490;,
            0.285794;0.883146;,
            0.374656;0.676238;,
            0.242842;0.673416;,
            0.256725;0.683411;,
            0.256725;0.683411;,
            0.242842;0.673416;,
            0.267879;0.728579;,
            0.267879;0.728579;,
            0.240544;0.764738;,
            0.231975;0.846514;,
            0.242842;0.673416;,
            0.253996;0.718584;,
            0.267879;0.728579;,
            0.285794;0.883146;,
            0.231975;0.846514;,
            0.235278;0.877651;,
            0.204640;0.882673;,
            0.207942;0.913810;,
            0.231975;0.846514;,
            0.207942;0.913810;,
            0.254181;0.954106;,
            0.281516;0.917947;,
            0.207942;0.913810;,
            0.281516;0.917947;,
            0.235278;0.877651;,
            0.320278;0.731191;,
            0.256725;0.683411;,
            0.353014;0.676238;,
            0.320278;0.731191;,
            0.267879;0.728579;,
            0.256725;0.683411;,
            0.285794;0.883146;,
            0.267879;0.728579;,
            0.320278;0.731191;,
            0.285794;0.883146;,
            0.231975;0.846514;,
            0.267879;0.728579;,
            0.000000;1.000000;,
            0.500000;1.000000;,
            0.000000;0.000000;;
        }

        MeshMaterialList
        {
            2;
            255;
            0,
            0,
            0,
            0,
            0,
            0,
            0,
            0,
            0,
            0,
            0,
            0,
            0,
            0,
            0,
            0,
            0,
            0,
            0,
            0,
            0,
            0,
            0,
            0,
            0,
            0,
            0,
            0,
            0,
            0,
            0,
            0,
            0,
            0,
            0,
            0,
            0,
            0,
            0,
            0,
            0,
            0,
            0,
            0,
            0,
            0,
            0,
            0,
            0,
            0,
            0,
            0,
            0,
            0,
            0,
            0,
            0,
            0,
            0,
            0,
            0,
            0,
            0,
            0,
            0,
            0,
            0,
            0,
            0,
            0,
            0,
            0,
            0,
            0,
            0,
            0,
            0,
            0,
            0,
            0,
            0,
            0,
            0,
            0,
            0,
            0,
            0,
            0,
            0,
            0,
            0,
            0,
            0,
            0,
            0,
            0,
            0,
            0,
            0,
            0,
            0,
            0,
            0,
            0,
            0,
            0,
            0,
            0,
            0,
            0,
            0,
            0,
            0,
            0,
            0,
            0,
            0,
            0,
            0,
            0,
            0,
            0,
            0,
            0,
            0,
            0,
            0,
            0,
            0,
            0,
            0,
            0,
            0,
            0,
            0,
            0,
            0,
            0,
            0,
            0,
            0,
            0,
            0,
            0,
            0,
            0,
            0,
            0,
            0,
            0,
            0,
            0,
            0,
            0,
            0,
            0,
            0,
            0,
            0,
            0,
            0,
            0,
            0,
            0,
            0,
            0,
            0,
            0,
            0,
            0,
            0,
            0,
            0,
            0,
            0,
            0,
            0,
            0,
            0,
            0,
            0,
            0,
            0,
            0,
            0,
            0,
            0,
            0,
            0,
            0,
            0,
            0,
            0,
            0,
            0,
            0,
            0,
            0,
            0,
            0,
            0,
            0,
            0,
            0,
            0,
            0,
            0,
            0,
            0,
            0,
            0,
            0,
            0,
            0,
            0,
            0,
            0,
            0,
            0,
            0,
            0,
            0,
            0,
            0,
            0,
            0,
            0,
            0,
            0,
            0,
            0,
            0,
            0,
            0,
            0,
            0,
            0,
            0,
            0,
            0,
            0,
            0,
            0,
            0,
            0,
            0,
            0,
            0,
            0,
            0,
            0,
            0,
            0,
            0,
            1;

            Material MatD3D01
            {
                0.500000;0.500000;0.500000;1.000000;;
                0.000000;
                0.000000;0.000000;0.000000;;
                0.000000;0.000000;0.000000;;

                TextureFileName
                {
                    "gun_D2.tga";
                }
            }

            Material MatD3D02
            {
                0.500000;0.500000;0.500000;1.000000;;
                0.000000;
                0.000000;0.000000;0.000000;;
                0.000000;0.000000;0.000000;;
            }
        }
    }
}
